%!PS-Adobe-2.0 EPSF-1.2
%%Creator: MATLAB, The MathWorks, Inc. Version 8.3.0.532 (R2014a). Operating System: Darwin 15.0.0 Darwin Kernel Version 15.0.0: Sat Sep 19 15:53:46 PDT 2015; root:xnu-3247.10.11~1/RELEASE_X86_64 x86_64.
%%Title: ./testError.eps
%%CreationDate: 11/14/2015  19:11:55
%%DocumentNeededFonts: Helvetica
%%DocumentProcessColors: Cyan Magenta Yellow Black
%%Extensions: CMYK
%%Pages: 1
%%BoundingBox:    52   193   553   612
%%EndComments

%%BeginProlog
% MathWorks dictionary
/MathWorks 160 dict begin
% definition operators
/bdef {bind def} bind def
/ldef {load def} bind def
/xdef {exch def} bdef
/xstore {exch store} bdef
% operator abbreviations
/c  /clip ldef
/cc /concat ldef
/cp /closepath ldef
/gr /grestore ldef
/gs /gsave ldef
/mt /moveto ldef
/np /newpath ldef
/cm /currentmatrix ldef
/sm /setmatrix ldef
/rm /rmoveto ldef
/rl /rlineto ldef
/s {show newpath} bdef
/sc {setcmykcolor} bdef
/sr /setrgbcolor ldef
/sg /setgray ldef
/w /setlinewidth ldef
/j /setlinejoin ldef
/cap /setlinecap ldef
/rc {rectclip} bdef
/rf {rectfill} bdef
% page state control
/pgsv () def
/bpage {/pgsv save def} bdef
/epage {pgsv restore} bdef
/bplot /gsave ldef
/eplot {stroke grestore} bdef
% orientation switch
/portraitMode 0 def /landscapeMode 1 def /rotateMode 2 def
% coordinate system mappings
/dpi2point 0 def
% font control
/FontSize 0 def
/FMS {/FontSize xstore findfont [FontSize 0 0 FontSize neg 0 0]
  makefont setfont} bdef
/reencode {exch dup where {pop load} {pop StandardEncoding} ifelse
  exch dup 3 1 roll findfont dup length dict begin
  { 1 index /FID ne {def}{pop pop} ifelse } forall
  /Encoding exch def currentdict end definefont pop} bdef
/isroman {findfont /CharStrings get /Agrave known} bdef
/FMSR {3 1 roll 1 index dup isroman {reencode} {pop pop} ifelse
  exch FMS} bdef
/csm {1 dpi2point div -1 dpi2point div scale neg translate
 dup landscapeMode eq {pop -90 rotate}
  {rotateMode eq {90 rotate} if} ifelse} bdef
% line types: solid, dotted, dashed, dotdash
/SO { [] 0 setdash } bdef
/DO { [.5 dpi2point mul 4 dpi2point mul] 0 setdash } bdef
/DA { [6 dpi2point mul] 0 setdash } bdef
/DD { [.5 dpi2point mul 4 dpi2point mul 6 dpi2point mul 4
  dpi2point mul] 0 setdash } bdef
% macros for lines and objects
/L {lineto stroke} bdef
/MP {3 1 roll moveto 1 sub {rlineto} repeat} bdef
/AP {{rlineto} repeat} bdef
/PDlw -1 def
/W {/PDlw currentlinewidth def setlinewidth} def
/PP {closepath eofill} bdef
/DP {closepath stroke} bdef
/MR {4 -2 roll moveto dup  0 exch rlineto exch 0 rlineto
  neg 0 exch rlineto closepath} bdef
/FR {MR stroke} bdef
/PR {MR fill} bdef
/L1i {{currentfile picstr readhexstring pop} image} bdef
/tMatrix matrix def
/MakeOval {newpath tMatrix currentmatrix pop translate scale
0 0 1 0 360 arc tMatrix setmatrix} bdef
/FO {MakeOval stroke} bdef
/PO {MakeOval fill} bdef
/PD {currentlinewidth 2 div 0 360 arc fill
   PDlw -1 eq not {PDlw w /PDlw -1 def} if} def
/FA {newpath tMatrix currentmatrix pop translate scale
  0 0 1 5 -2 roll arc tMatrix setmatrix stroke} bdef
/PA {newpath tMatrix currentmatrix pop	translate 0 0 moveto scale
  0 0 1 5 -2 roll arc closepath tMatrix setmatrix fill} bdef
/FAn {newpath tMatrix currentmatrix pop translate scale
  0 0 1 5 -2 roll arcn tMatrix setmatrix stroke} bdef
/PAn {newpath tMatrix currentmatrix pop translate 0 0 moveto scale
  0 0 1 5 -2 roll arcn closepath tMatrix setmatrix fill} bdef
/vradius 0 def /hradius 0 def /lry 0 def
/lrx 0 def /uly 0 def /ulx 0 def /rad 0 def
/MRR {/vradius xdef /hradius xdef /lry xdef /lrx xdef /uly xdef
  /ulx xdef newpath tMatrix currentmatrix pop ulx hradius add uly
  vradius add translate hradius vradius scale 0 0 1 180 270 arc 
  tMatrix setmatrix lrx hradius sub uly vradius add translate
  hradius vradius scale 0 0 1 270 360 arc tMatrix setmatrix
  lrx hradius sub lry vradius sub translate hradius vradius scale
  0 0 1 0 90 arc tMatrix setmatrix ulx hradius add lry vradius sub
  translate hradius vradius scale 0 0 1 90 180 arc tMatrix setmatrix
  closepath} bdef
/FRR {MRR stroke } bdef
/PRR {MRR fill } bdef
/MlrRR {/lry xdef /lrx xdef /uly xdef /ulx xdef /rad lry uly sub 2 div def
  newpath tMatrix currentmatrix pop ulx rad add uly rad add translate
  rad rad scale 0 0 1 90 270 arc tMatrix setmatrix lrx rad sub lry rad
  sub translate rad rad scale 0 0 1 270 90 arc tMatrix setmatrix
  closepath} bdef
/FlrRR {MlrRR stroke } bdef
/PlrRR {MlrRR fill } bdef
/MtbRR {/lry xdef /lrx xdef /uly xdef /ulx xdef /rad lrx ulx sub 2 div def
  newpath tMatrix currentmatrix pop ulx rad add uly rad add translate
  rad rad scale 0 0 1 180 360 arc tMatrix setmatrix lrx rad sub lry rad
  sub translate rad rad scale 0 0 1 0 180 arc tMatrix setmatrix
  closepath} bdef
/FtbRR {MtbRR stroke } bdef
/PtbRR {MtbRR fill } bdef
/stri 6 array def /dtri 6 array def
/smat 6 array def /dmat 6 array def
/tmat1 6 array def /tmat2 6 array def /dif 3 array def
/asub {/ind2 exch def /ind1 exch def dup dup
  ind1 get exch ind2 get sub exch } bdef
/tri_to_matrix {
  2 0 asub 3 1 asub 4 0 asub 5 1 asub
  dup 0 get exch 1 get 7 -1 roll astore } bdef
/compute_transform {
  dmat dtri tri_to_matrix tmat1 invertmatrix 
  smat stri tri_to_matrix tmat2 concatmatrix } bdef
/ds {stri astore pop} bdef
/dt {dtri astore pop} bdef
/db {2 copy /cols xdef /rows xdef mul dup 3 mul string
  currentfile exch readhexstring pop
  dup 0 3 index getinterval /rbmap xdef
  dup 2 index dup getinterval /gbmap xdef
  1 index dup 2 mul exch getinterval /bbmap xdef pop pop}bdef
/it {gs np dtri aload pop moveto lineto lineto cp c
  cols rows 8 compute_transform 
  rbmap gbmap bbmap true 3 colorimage gr}bdef
/il {newpath moveto lineto stroke}bdef
currentdict end def
%%EndProlog

%%BeginSetup
MathWorks begin

0 cap

end
%%EndSetup

%%Page: 1 1
%%BeginPageSetup
%%PageBoundingBox:    52   193   553   612
MathWorks begin
bpage
%%EndPageSetup

%%BeginObject: obj1
bplot

/dpi2point 12 def
portraitMode 0216 7344 csm

  412    -1  6019  5018 MR c np
85 dict begin %Colortable dictionary
/c0 { 0.000000 0.000000 0.000000 sr} bdef
/c1 { 1.000000 1.000000 1.000000 sr} bdef
/c2 { 0.900000 0.000000 0.000000 sr} bdef
/c3 { 0.000000 0.820000 0.000000 sr} bdef
/c4 { 0.000000 0.000000 0.800000 sr} bdef
/c5 { 0.910000 0.820000 0.320000 sr} bdef
/c6 { 1.000000 0.260000 0.820000 sr} bdef
/c7 { 0.000000 0.820000 0.820000 sr} bdef
c0
1 j
1 sg
   0    0 6924 5187 PR
6 w
0 4227 5365 0 0 -4227 900 4616 4 MP
PP
-5365 0 0 4227 5365 0 0 -4227 900 4616 5 MP stroke
4 w
DO
SO
6 w
0 sg
 900 4616 mt 6265 4616 L
 900  389 mt 6265  389 L
 900 4616 mt  900  389 L
6265 4616 mt 6265  389 L
 900 4616 mt 6265 4616 L
 900 4616 mt  900  389 L
 900 4616 mt  900 4562 L
 900  389 mt  900  442 L
%%IncludeResource: font Helvetica
/Helvetica /ISOLatin1Encoding 120 FMSR

 867 4761 mt 
(0) s
1436 4616 mt 1436 4562 L
1436  389 mt 1436  442 L
1286 4761 mt 
(0.001) s
1973 4616 mt 1973 4562 L
1973  389 mt 1973  442 L
1823 4761 mt 
(0.002) s
2509 4616 mt 2509 4562 L
2509  389 mt 2509  442 L
2359 4761 mt 
(0.003) s
3046 4616 mt 3046 4562 L
3046  389 mt 3046  442 L
2896 4761 mt 
(0.004) s
3582 4616 mt 3582 4562 L
3582  389 mt 3582  442 L
3432 4761 mt 
(0.005) s
4119 4616 mt 4119 4562 L
4119  389 mt 4119  442 L
3969 4761 mt 
(0.006) s
4655 4616 mt 4655 4562 L
4655  389 mt 4655  442 L
4505 4761 mt 
(0.007) s
5192 4616 mt 5192 4562 L
5192  389 mt 5192  442 L
5042 4761 mt 
(0.008) s
5728 4616 mt 5728 4562 L
5728  389 mt 5728  442 L
5578 4761 mt 
(0.009) s
6265 4616 mt 6265 4562 L
6265  389 mt 6265  442 L
6149 4761 mt 
(0.01) s
 900 4616 mt  953 4616 L
6265 4616 mt 6211 4616 L
 699 4660 mt 
(5.6) s
 900 4012 mt  953 4012 L
6265 4012 mt 6211 4012 L
 699 4056 mt 
(5.7) s
 900 3408 mt  953 3408 L
6265 3408 mt 6211 3408 L
 699 3452 mt 
(5.8) s
 900 2804 mt  953 2804 L
6265 2804 mt 6211 2804 L
 699 2848 mt 
(5.9) s
 900 2200 mt  953 2200 L
6265 2200 mt 6211 2200 L
 799 2244 mt 
(6) s
 900 1596 mt  953 1596 L
6265 1596 mt 6211 1596 L
 699 1640 mt 
(6.1) s
 900  992 mt  953  992 L
6265  992 mt 6211  992 L
 699 1036 mt 
(6.2) s
 900  389 mt  953  389 L
6265  389 mt 6211  389 L
 699  433 mt 
(6.3) s
 900 4616 mt 6265 4616 L
 900  389 mt 6265  389 L
 900 4616 mt  900  389 L
6265 4616 mt 6265  389 L
gs 900 389 5366 4228 MR c np
/c8 { 0.000000 0.000000 1.000000 sr} bdef
c8
110 -42 109 -42 110 -43 109 -43 110 -44 109 -45 110 -45 109 -46 
110 -47 109 -47 110 -48 109 -50 110 -50 109 -51 110 -52 109 -53 
110 -55 109 -55 110 -57 109 -58 110 -60 109 -61 110 -62 109 -64 
110 -66 109 -67 110 -69 109 -71 110 -74 109 -75 110 -77 109 -78 
110 -78 109 -79 110 -82 109 -85 110 -88 109 -91 110 -89 109 -88 
110 -88 109 -88 110 -87 109 -80 110 -73 109 -56 110 -12 109 117 
109 731 900 3467 50 MP stroke
gr

c8
gs 827 1281 5512 3108 MR c np
  36   36  900 3467 FO
  36   36 1009 4198 FO
  36   36 1118 4315 FO
  36   36 1228 4303 FO
  36   36 1337 4247 FO
  36   36 1447 4174 FO
  36   36 1556 4094 FO
  36   36 1666 4007 FO
  36   36 1775 3919 FO
  36   36 1885 3831 FO
  36   36 1994 3743 FO
  36   36 2104 3654 FO
  36   36 2213 3563 FO
  36   36 2323 3475 FO
  36   36 2432 3390 FO
  36   36 2542 3308 FO
  36   36 2651 3229 FO
  36   36 2761 3151 FO
  36   36 2870 3073 FO
  36   36 2980 2996 FO
  36   36 3089 2921 FO
  36   36 3199 2847 FO
  36   36 3308 2776 FO
  36   36 3418 2707 FO
  36   36 3527 2640 FO
  36   36 3637 2574 FO
  36   36 3746 2510 FO
  36   36 3856 2448 FO
  36   36 3965 2387 FO
  36   36 4075 2327 FO
  36   36 4184 2269 FO
  36   36 4294 2212 FO
  36   36 4403 2157 FO
  36   36 4513 2102 FO
  36   36 4622 2049 FO
  36   36 4732 1997 FO
  36   36 4841 1946 FO
  36   36 4951 1896 FO
  36   36 5060 1846 FO
  36   36 5170 1798 FO
  36   36 5279 1751 FO
  36   36 5389 1704 FO
  36   36 5498 1658 FO
  36   36 5608 1613 FO
  36   36 5717 1568 FO
  36   36 5827 1524 FO
  36   36 5936 1481 FO
  36   36 6046 1438 FO
  36   36 6155 1396 FO
  36   36 6265 1354 FO
gr

gs 900 389 5366 4228 MR c np
gs 1045 4242 147 147 MR c np
/c9 { 1.000000 0.000000 0.000000 sr} bdef
c9
1082 4315 mt 1154 4315 L
1118 4279 mt 1118 4351 L
1093 4290 mt 1143 4340 L
1143 4290 mt 1093 4340 L
gr

c9
gr

c9
0 sg
%%IncludeResource: font Symbol
/Symbol /ISOLatin1Encoding 180 FMSR

3529 4940 mt 
(m) s
%%IncludeResource: font Helvetica
/Helvetica /ISOLatin1Encoding 180 FMSR

 604 3336 mt  -90 rotate
(Average L2 DistError) s
90 rotate
%%IncludeResource: font Helvetica
/Helvetica /ISOLatin1Encoding 216 FMSR

1688  273 mt 
(Regularized Linear Regression Tradeoff) s
%%IncludeResource: font Helvetica
/Helvetica /ISOLatin1Encoding 120 FMSR

 883 4659 mt 
( ) s
6249  431 mt 
( ) s
1 sg
0 334 1513 0 0 -334 4693 783 4 MP
PP
-1513 0 0 334 1513 0 0 -334 4693 783 5 MP stroke
4 w
DO
SO
6 w
0 sg
4693  783 mt 6206  783 L
4693  449 mt 6206  449 L
4693  783 mt 4693  449 L
6206  783 mt 6206  449 L
4693  783 mt 6206  783 L
4693  783 mt 4693  449 L
4693  783 mt 6206  783 L
4693  449 mt 6206  449 L
4693  783 mt 4693  449 L
6206  783 mt 6206  449 L
5141  584 mt 
(testingError) s
gs 4693 449 1514 335 MR c np
c8
345 0 4761 541 2 MP stroke
gs 4860 468 147 147 MR c np
  36   36 4933  541 FO
gr

gr

c8
0 sg
5141  733 mt 
(Best Model Choice) s
gs 4693 449 1514 335 MR c np
gs 4860 617 147 147 MR c np
c9
4897  690 mt 4969  690 L
4933  654 mt 4933  726 L
4908  665 mt 4958  715 L
4958  665 mt 4908  715 L
gr

c9
gr

c9

end %%Color Dict

eplot
%%EndObject

epage
end

showpage

%%Trailer
%%EOF
