%!PS-Adobe-2.0 EPSF-1.2
%%Creator: MATLAB, The MathWorks, Inc. Version 8.3.0.532 (R2014a). Operating System: Darwin 15.0.0 Darwin Kernel Version 15.0.0: Sat Sep 19 15:53:46 PDT 2015; root:xnu-3247.10.11~1/RELEASE_X86_64 x86_64.
%%Title: ./avgTestErrorAcrossAllDataSets.eps
%%CreationDate: 12/10/2015  17:36:49
%%DocumentNeededFonts: Helvetica
%%DocumentProcessColors: Cyan Magenta Yellow Black
%%Extensions: CMYK
%%Pages: 1
%%BoundingBox:    37   181   556   592
%%EndComments

%%BeginProlog
% MathWorks dictionary
/MathWorks 160 dict begin
% definition operators
/bdef {bind def} bind def
/ldef {load def} bind def
/xdef {exch def} bdef
/xstore {exch store} bdef
% operator abbreviations
/c  /clip ldef
/cc /concat ldef
/cp /closepath ldef
/gr /grestore ldef
/gs /gsave ldef
/mt /moveto ldef
/np /newpath ldef
/cm /currentmatrix ldef
/sm /setmatrix ldef
/rm /rmoveto ldef
/rl /rlineto ldef
/s {show newpath} bdef
/sc {setcmykcolor} bdef
/sr /setrgbcolor ldef
/sg /setgray ldef
/w /setlinewidth ldef
/j /setlinejoin ldef
/cap /setlinecap ldef
/rc {rectclip} bdef
/rf {rectfill} bdef
% page state control
/pgsv () def
/bpage {/pgsv save def} bdef
/epage {pgsv restore} bdef
/bplot /gsave ldef
/eplot {stroke grestore} bdef
% orientation switch
/portraitMode 0 def /landscapeMode 1 def /rotateMode 2 def
% coordinate system mappings
/dpi2point 0 def
% font control
/FontSize 0 def
/FMS {/FontSize xstore findfont [FontSize 0 0 FontSize neg 0 0]
  makefont setfont} bdef
/reencode {exch dup where {pop load} {pop StandardEncoding} ifelse
  exch dup 3 1 roll findfont dup length dict begin
  { 1 index /FID ne {def}{pop pop} ifelse } forall
  /Encoding exch def currentdict end definefont pop} bdef
/isroman {findfont /CharStrings get /Agrave known} bdef
/FMSR {3 1 roll 1 index dup isroman {reencode} {pop pop} ifelse
  exch FMS} bdef
/csm {1 dpi2point div -1 dpi2point div scale neg translate
 dup landscapeMode eq {pop -90 rotate}
  {rotateMode eq {90 rotate} if} ifelse} bdef
% line types: solid, dotted, dashed, dotdash
/SO { [] 0 setdash } bdef
/DO { [.5 dpi2point mul 4 dpi2point mul] 0 setdash } bdef
/DA { [6 dpi2point mul] 0 setdash } bdef
/DD { [.5 dpi2point mul 4 dpi2point mul 6 dpi2point mul 4
  dpi2point mul] 0 setdash } bdef
% macros for lines and objects
/L {lineto stroke} bdef
/MP {3 1 roll moveto 1 sub {rlineto} repeat} bdef
/AP {{rlineto} repeat} bdef
/PDlw -1 def
/W {/PDlw currentlinewidth def setlinewidth} def
/PP {closepath eofill} bdef
/DP {closepath stroke} bdef
/MR {4 -2 roll moveto dup  0 exch rlineto exch 0 rlineto
  neg 0 exch rlineto closepath} bdef
/FR {MR stroke} bdef
/PR {MR fill} bdef
/L1i {{currentfile picstr readhexstring pop} image} bdef
/tMatrix matrix def
/MakeOval {newpath tMatrix currentmatrix pop translate scale
0 0 1 0 360 arc tMatrix setmatrix} bdef
/FO {MakeOval stroke} bdef
/PO {MakeOval fill} bdef
/PD {currentlinewidth 2 div 0 360 arc fill
   PDlw -1 eq not {PDlw w /PDlw -1 def} if} def
/FA {newpath tMatrix currentmatrix pop translate scale
  0 0 1 5 -2 roll arc tMatrix setmatrix stroke} bdef
/PA {newpath tMatrix currentmatrix pop	translate 0 0 moveto scale
  0 0 1 5 -2 roll arc closepath tMatrix setmatrix fill} bdef
/FAn {newpath tMatrix currentmatrix pop translate scale
  0 0 1 5 -2 roll arcn tMatrix setmatrix stroke} bdef
/PAn {newpath tMatrix currentmatrix pop translate 0 0 moveto scale
  0 0 1 5 -2 roll arcn closepath tMatrix setmatrix fill} bdef
/vradius 0 def /hradius 0 def /lry 0 def
/lrx 0 def /uly 0 def /ulx 0 def /rad 0 def
/MRR {/vradius xdef /hradius xdef /lry xdef /lrx xdef /uly xdef
  /ulx xdef newpath tMatrix currentmatrix pop ulx hradius add uly
  vradius add translate hradius vradius scale 0 0 1 180 270 arc 
  tMatrix setmatrix lrx hradius sub uly vradius add translate
  hradius vradius scale 0 0 1 270 360 arc tMatrix setmatrix
  lrx hradius sub lry vradius sub translate hradius vradius scale
  0 0 1 0 90 arc tMatrix setmatrix ulx hradius add lry vradius sub
  translate hradius vradius scale 0 0 1 90 180 arc tMatrix setmatrix
  closepath} bdef
/FRR {MRR stroke } bdef
/PRR {MRR fill } bdef
/MlrRR {/lry xdef /lrx xdef /uly xdef /ulx xdef /rad lry uly sub 2 div def
  newpath tMatrix currentmatrix pop ulx rad add uly rad add translate
  rad rad scale 0 0 1 90 270 arc tMatrix setmatrix lrx rad sub lry rad
  sub translate rad rad scale 0 0 1 270 90 arc tMatrix setmatrix
  closepath} bdef
/FlrRR {MlrRR stroke } bdef
/PlrRR {MlrRR fill } bdef
/MtbRR {/lry xdef /lrx xdef /uly xdef /ulx xdef /rad lrx ulx sub 2 div def
  newpath tMatrix currentmatrix pop ulx rad add uly rad add translate
  rad rad scale 0 0 1 180 360 arc tMatrix setmatrix lrx rad sub lry rad
  sub translate rad rad scale 0 0 1 0 180 arc tMatrix setmatrix
  closepath} bdef
/FtbRR {MtbRR stroke } bdef
/PtbRR {MtbRR fill } bdef
/stri 6 array def /dtri 6 array def
/smat 6 array def /dmat 6 array def
/tmat1 6 array def /tmat2 6 array def /dif 3 array def
/asub {/ind2 exch def /ind1 exch def dup dup
  ind1 get exch ind2 get sub exch } bdef
/tri_to_matrix {
  2 0 asub 3 1 asub 4 0 asub 5 1 asub
  dup 0 get exch 1 get 7 -1 roll astore } bdef
/compute_transform {
  dmat dtri tri_to_matrix tmat1 invertmatrix 
  smat stri tri_to_matrix tmat2 concatmatrix } bdef
/ds {stri astore pop} bdef
/dt {dtri astore pop} bdef
/db {2 copy /cols xdef /rows xdef mul dup 3 mul string
  currentfile exch readhexstring pop
  dup 0 3 index getinterval /rbmap xdef
  dup 2 index dup getinterval /gbmap xdef
  1 index dup 2 mul exch getinterval /bbmap xdef pop pop}bdef
/it {gs np dtri aload pop moveto lineto lineto cp c
  cols rows 8 compute_transform 
  rbmap gbmap bbmap true 3 colorimage gr}bdef
/il {newpath moveto lineto stroke}bdef
currentdict end def
%%EndProlog

%%BeginSetup
MathWorks begin

0 cap

end
%%EndSetup

%%Page: 1 1
%%BeginPageSetup
%%PageBoundingBox:    37   181   556   592
MathWorks begin
bpage
%%EndPageSetup

%%BeginObject: obj1
bplot

/dpi2point 12 def
portraitMode 0216 7344 csm

  228   240  6236  4921 MR c np
85 dict begin %Colortable dictionary
/c0 { 0.000000 0.000000 0.000000 sr} bdef
/c1 { 1.000000 1.000000 1.000000 sr} bdef
/c2 { 0.900000 0.000000 0.000000 sr} bdef
/c3 { 0.000000 0.820000 0.000000 sr} bdef
/c4 { 0.000000 0.000000 0.800000 sr} bdef
/c5 { 0.910000 0.820000 0.320000 sr} bdef
/c6 { 1.000000 0.260000 0.820000 sr} bdef
/c7 { 0.000000 0.820000 0.820000 sr} bdef
c0
1 j
1 sg
   0    0 6924 5187 PR
6 w
0 4227 5365 0 0 -4227 900 4616 4 MP
PP
-5365 0 0 4227 5365 0 0 -4227 900 4616 5 MP stroke
4 w
DO
SO
6 w
0 sg
 900 4616 mt 6265 4616 L
 900  389 mt 6265  389 L
 900 4616 mt  900  389 L
6265 4616 mt 6265  389 L
 900 4616 mt 6265 4616 L
 900 4616 mt  900  389 L
 900 4616 mt  900 4562 L
 900  389 mt  900  442 L
%%IncludeResource: font Helvetica
/Helvetica /ISOLatin1Encoding 180 FMSR

 850 4817 mt 
(0) s
1666 4616 mt 1666 4562 L
1666  389 mt 1666  442 L
1566 4817 mt 
(20) s
2432 4616 mt 2432 4562 L
2432  389 mt 2432  442 L
2332 4817 mt 
(40) s
3199 4616 mt 3199 4562 L
3199  389 mt 3199  442 L
3099 4817 mt 
(60) s
3965 4616 mt 3965 4562 L
3965  389 mt 3965  442 L
3865 4817 mt 
(80) s
4732 4616 mt 4732 4562 L
4732  389 mt 4732  442 L
4582 4817 mt 
(100) s
5498 4616 mt 5498 4562 L
5498  389 mt 5498  442 L
5348 4817 mt 
(120) s
6265 4616 mt 6265 4562 L
6265  389 mt 6265  442 L
6115 4817 mt 
(140) s
 900 4616 mt  953 4616 L
6265 4616 mt 6211 4616 L
 765 4682 mt 
(0) s
 900 4146 mt  953 4146 L
6265 4146 mt 6211 4146 L
 515 4212 mt 
(0.05) s
 900 3676 mt  953 3676 L
6265 3676 mt 6211 3676 L
 615 3742 mt 
(0.1) s
 900 3207 mt  953 3207 L
6265 3207 mt 6211 3207 L
 515 3273 mt 
(0.15) s
 900 2737 mt  953 2737 L
6265 2737 mt 6211 2737 L
 615 2803 mt 
(0.2) s
 900 2267 mt  953 2267 L
6265 2267 mt 6211 2267 L
 515 2333 mt 
(0.25) s
 900 1797 mt  953 1797 L
6265 1797 mt 6211 1797 L
 615 1863 mt 
(0.3) s
 900 1328 mt  953 1328 L
6265 1328 mt 6211 1328 L
 515 1394 mt 
(0.35) s
 900  858 mt  953  858 L
6265  858 mt 6211  858 L
 615  924 mt 
(0.4) s
 900  389 mt  953  389 L
6265  389 mt 6211  389 L
 515  455 mt 
(0.45) s
 900 4616 mt 6265 4616 L
 900  389 mt 6265  389 L
 900 4616 mt  900  389 L
6265 4616 mt 6265  389 L
gs 900 389 5366 4228 MR c np
/c8 { 0.000000 0.000000 1.000000 sr} bdef
c8
2453 -1323 1226 -1371 613 -678 154 -170 153 -133 77 -78 76 -37 1053 4210 8 MP stroke
gr

c8
gs 980 347 4899 3937 MR c np
1017 4210 mt 1089 4210 L
1053 4174 mt 1053 4246 L
1093 4173 mt 1165 4173 L
1129 4137 mt 1129 4209 L
1170 4095 mt 1242 4095 L
1206 4059 mt 1206 4131 L
1323 3962 mt 1395 3962 L
1359 3926 mt 1359 3998 L
1477 3792 mt 1549 3792 L
1513 3756 mt 1513 3828 L
2090 3114 mt 2162 3114 L
2126 3078 mt 2126 3150 L
3316 1743 mt 3388 1743 L
3352 1707 mt 3352 1779 L
5769  420 mt 5841  420 L
5805  384 mt 5805  456 L
1028 4185 mt 1078 4235 L
1078 4185 mt 1028 4235 L
1104 4148 mt 1154 4198 L
1154 4148 mt 1104 4198 L
1181 4070 mt 1231 4120 L
1231 4070 mt 1181 4120 L
1334 3937 mt 1384 3987 L
1384 3937 mt 1334 3987 L
1488 3767 mt 1538 3817 L
1538 3767 mt 1488 3817 L
2101 3089 mt 2151 3139 L
2151 3089 mt 2101 3139 L
3327 1718 mt 3377 1768 L
3377 1718 mt 3327 1768 L
5780  395 mt 5830  445 L
5830  395 mt 5780  445 L
gr

gs 900 389 5366 4228 MR c np
gr

0 sg
3479 5004 mt 
(N) s
%%IncludeResource: font Symbol
/Symbol /ISOLatin1Encoding 144 FMSR

3608 5094 mt 
(q) s
%%IncludeResource: font Helvetica
/Helvetica /ISOLatin1Encoding 180 FMSR

 420 3412 mt  -90 rotate
(Average Success Rate) s
90 rotate

end %%Color Dict

eplot
%%EndObject

epage
end

showpage

%%Trailer
%%EOF
