%!PS-Adobe-2.0 EPSF-1.2
%%Creator: MATLAB, The MathWorks, Inc. Version 8.3.0.532 (R2014a). Operating System: Darwin 15.0.0 Darwin Kernel Version 15.0.0: Sat Sep 19 15:53:46 PDT 2015; root:xnu-3247.10.11~1/RELEASE_X86_64 x86_64.
%%Title: ./testANDtrainError.eps
%%CreationDate: 11/14/2015  18:17:48
%%DocumentNeededFonts: Helvetica
%%DocumentProcessColors: Cyan Magenta Yellow Black
%%Extensions: CMYK
%%Pages: 1
%%BoundingBox:    52   193   553   612
%%EndComments

%%BeginProlog
% MathWorks dictionary
/MathWorks 160 dict begin
% definition operators
/bdef {bind def} bind def
/ldef {load def} bind def
/xdef {exch def} bdef
/xstore {exch store} bdef
% operator abbreviations
/c  /clip ldef
/cc /concat ldef
/cp /closepath ldef
/gr /grestore ldef
/gs /gsave ldef
/mt /moveto ldef
/np /newpath ldef
/cm /currentmatrix ldef
/sm /setmatrix ldef
/rm /rmoveto ldef
/rl /rlineto ldef
/s {show newpath} bdef
/sc {setcmykcolor} bdef
/sr /setrgbcolor ldef
/sg /setgray ldef
/w /setlinewidth ldef
/j /setlinejoin ldef
/cap /setlinecap ldef
/rc {rectclip} bdef
/rf {rectfill} bdef
% page state control
/pgsv () def
/bpage {/pgsv save def} bdef
/epage {pgsv restore} bdef
/bplot /gsave ldef
/eplot {stroke grestore} bdef
% orientation switch
/portraitMode 0 def /landscapeMode 1 def /rotateMode 2 def
% coordinate system mappings
/dpi2point 0 def
% font control
/FontSize 0 def
/FMS {/FontSize xstore findfont [FontSize 0 0 FontSize neg 0 0]
  makefont setfont} bdef
/reencode {exch dup where {pop load} {pop StandardEncoding} ifelse
  exch dup 3 1 roll findfont dup length dict begin
  { 1 index /FID ne {def}{pop pop} ifelse } forall
  /Encoding exch def currentdict end definefont pop} bdef
/isroman {findfont /CharStrings get /Agrave known} bdef
/FMSR {3 1 roll 1 index dup isroman {reencode} {pop pop} ifelse
  exch FMS} bdef
/csm {1 dpi2point div -1 dpi2point div scale neg translate
 dup landscapeMode eq {pop -90 rotate}
  {rotateMode eq {90 rotate} if} ifelse} bdef
% line types: solid, dotted, dashed, dotdash
/SO { [] 0 setdash } bdef
/DO { [.5 dpi2point mul 4 dpi2point mul] 0 setdash } bdef
/DA { [6 dpi2point mul] 0 setdash } bdef
/DD { [.5 dpi2point mul 4 dpi2point mul 6 dpi2point mul 4
  dpi2point mul] 0 setdash } bdef
% macros for lines and objects
/L {lineto stroke} bdef
/MP {3 1 roll moveto 1 sub {rlineto} repeat} bdef
/AP {{rlineto} repeat} bdef
/PDlw -1 def
/W {/PDlw currentlinewidth def setlinewidth} def
/PP {closepath eofill} bdef
/DP {closepath stroke} bdef
/MR {4 -2 roll moveto dup  0 exch rlineto exch 0 rlineto
  neg 0 exch rlineto closepath} bdef
/FR {MR stroke} bdef
/PR {MR fill} bdef
/L1i {{currentfile picstr readhexstring pop} image} bdef
/tMatrix matrix def
/MakeOval {newpath tMatrix currentmatrix pop translate scale
0 0 1 0 360 arc tMatrix setmatrix} bdef
/FO {MakeOval stroke} bdef
/PO {MakeOval fill} bdef
/PD {currentlinewidth 2 div 0 360 arc fill
   PDlw -1 eq not {PDlw w /PDlw -1 def} if} def
/FA {newpath tMatrix currentmatrix pop translate scale
  0 0 1 5 -2 roll arc tMatrix setmatrix stroke} bdef
/PA {newpath tMatrix currentmatrix pop	translate 0 0 moveto scale
  0 0 1 5 -2 roll arc closepath tMatrix setmatrix fill} bdef
/FAn {newpath tMatrix currentmatrix pop translate scale
  0 0 1 5 -2 roll arcn tMatrix setmatrix stroke} bdef
/PAn {newpath tMatrix currentmatrix pop translate 0 0 moveto scale
  0 0 1 5 -2 roll arcn closepath tMatrix setmatrix fill} bdef
/vradius 0 def /hradius 0 def /lry 0 def
/lrx 0 def /uly 0 def /ulx 0 def /rad 0 def
/MRR {/vradius xdef /hradius xdef /lry xdef /lrx xdef /uly xdef
  /ulx xdef newpath tMatrix currentmatrix pop ulx hradius add uly
  vradius add translate hradius vradius scale 0 0 1 180 270 arc 
  tMatrix setmatrix lrx hradius sub uly vradius add translate
  hradius vradius scale 0 0 1 270 360 arc tMatrix setmatrix
  lrx hradius sub lry vradius sub translate hradius vradius scale
  0 0 1 0 90 arc tMatrix setmatrix ulx hradius add lry vradius sub
  translate hradius vradius scale 0 0 1 90 180 arc tMatrix setmatrix
  closepath} bdef
/FRR {MRR stroke } bdef
/PRR {MRR fill } bdef
/MlrRR {/lry xdef /lrx xdef /uly xdef /ulx xdef /rad lry uly sub 2 div def
  newpath tMatrix currentmatrix pop ulx rad add uly rad add translate
  rad rad scale 0 0 1 90 270 arc tMatrix setmatrix lrx rad sub lry rad
  sub translate rad rad scale 0 0 1 270 90 arc tMatrix setmatrix
  closepath} bdef
/FlrRR {MlrRR stroke } bdef
/PlrRR {MlrRR fill } bdef
/MtbRR {/lry xdef /lrx xdef /uly xdef /ulx xdef /rad lrx ulx sub 2 div def
  newpath tMatrix currentmatrix pop ulx rad add uly rad add translate
  rad rad scale 0 0 1 180 360 arc tMatrix setmatrix lrx rad sub lry rad
  sub translate rad rad scale 0 0 1 0 180 arc tMatrix setmatrix
  closepath} bdef
/FtbRR {MtbRR stroke } bdef
/PtbRR {MtbRR fill } bdef
/stri 6 array def /dtri 6 array def
/smat 6 array def /dmat 6 array def
/tmat1 6 array def /tmat2 6 array def /dif 3 array def
/asub {/ind2 exch def /ind1 exch def dup dup
  ind1 get exch ind2 get sub exch } bdef
/tri_to_matrix {
  2 0 asub 3 1 asub 4 0 asub 5 1 asub
  dup 0 get exch 1 get 7 -1 roll astore } bdef
/compute_transform {
  dmat dtri tri_to_matrix tmat1 invertmatrix 
  smat stri tri_to_matrix tmat2 concatmatrix } bdef
/ds {stri astore pop} bdef
/dt {dtri astore pop} bdef
/db {2 copy /cols xdef /rows xdef mul dup 3 mul string
  currentfile exch readhexstring pop
  dup 0 3 index getinterval /rbmap xdef
  dup 2 index dup getinterval /gbmap xdef
  1 index dup 2 mul exch getinterval /bbmap xdef pop pop}bdef
/it {gs np dtri aload pop moveto lineto lineto cp c
  cols rows 8 compute_transform 
  rbmap gbmap bbmap true 3 colorimage gr}bdef
/il {newpath moveto lineto stroke}bdef
currentdict end def
%%EndProlog

%%BeginSetup
MathWorks begin

0 cap

end
%%EndSetup

%%Page: 1 1
%%BeginPageSetup
%%PageBoundingBox:    52   193   553   612
MathWorks begin
bpage
%%EndPageSetup

%%BeginObject: obj1
bplot

/dpi2point 12 def
portraitMode 0216 7344 csm

  412    -1  6019  5018 MR c np
86 dict begin %Colortable dictionary
/c0 { 0.000000 0.000000 0.000000 sr} bdef
/c1 { 1.000000 1.000000 1.000000 sr} bdef
/c2 { 0.900000 0.000000 0.000000 sr} bdef
/c3 { 0.000000 0.820000 0.000000 sr} bdef
/c4 { 0.000000 0.000000 0.800000 sr} bdef
/c5 { 0.910000 0.820000 0.320000 sr} bdef
/c6 { 1.000000 0.260000 0.820000 sr} bdef
/c7 { 0.000000 0.820000 0.820000 sr} bdef
c0
1 j
1 sg
   0    0 6924 5187 PR
6 w
0 4227 5365 0 0 -4227 900 4616 4 MP
PP
-5365 0 0 4227 5365 0 0 -4227 900 4616 5 MP stroke
4 w
DO
SO
6 w
0 sg
 900 4616 mt 6265 4616 L
 900  389 mt 6265  389 L
 900 4616 mt  900  389 L
6265 4616 mt 6265  389 L
 900 4616 mt 6265 4616 L
 900 4616 mt  900  389 L
 900 4616 mt  900 4562 L
 900  389 mt  900  442 L
%%IncludeResource: font Helvetica
/Helvetica /ISOLatin1Encoding 120 FMSR

 867 4761 mt 
(0) s
1436 4616 mt 1436 4562 L
1436  389 mt 1436  442 L
1286 4761 mt 
(0.001) s
1973 4616 mt 1973 4562 L
1973  389 mt 1973  442 L
1823 4761 mt 
(0.002) s
2509 4616 mt 2509 4562 L
2509  389 mt 2509  442 L
2359 4761 mt 
(0.003) s
3046 4616 mt 3046 4562 L
3046  389 mt 3046  442 L
2896 4761 mt 
(0.004) s
3582 4616 mt 3582 4562 L
3582  389 mt 3582  442 L
3432 4761 mt 
(0.005) s
4119 4616 mt 4119 4562 L
4119  389 mt 4119  442 L
3969 4761 mt 
(0.006) s
4655 4616 mt 4655 4562 L
4655  389 mt 4655  442 L
4505 4761 mt 
(0.007) s
5192 4616 mt 5192 4562 L
5192  389 mt 5192  442 L
5042 4761 mt 
(0.008) s
5728 4616 mt 5728 4562 L
5728  389 mt 5728  442 L
5578 4761 mt 
(0.009) s
6265 4616 mt 6265 4562 L
6265  389 mt 6265  442 L
6149 4761 mt 
(0.01) s
 900 4616 mt  953 4616 L
6265 4616 mt 6211 4616 L
 799 4660 mt 
(4) s
 900 4193 mt  953 4193 L
6265 4193 mt 6211 4193 L
 699 4237 mt 
(4.2) s
 900 3770 mt  953 3770 L
6265 3770 mt 6211 3770 L
 699 3814 mt 
(4.4) s
 900 3347 mt  953 3347 L
6265 3347 mt 6211 3347 L
 699 3391 mt 
(4.6) s
 900 2925 mt  953 2925 L
6265 2925 mt 6211 2925 L
 699 2969 mt 
(4.8) s
 900 2502 mt  953 2502 L
6265 2502 mt 6211 2502 L
 799 2546 mt 
(5) s
 900 2079 mt  953 2079 L
6265 2079 mt 6211 2079 L
 699 2123 mt 
(5.2) s
 900 1657 mt  953 1657 L
6265 1657 mt 6211 1657 L
 699 1701 mt 
(5.4) s
 900 1234 mt  953 1234 L
6265 1234 mt 6211 1234 L
 699 1278 mt 
(5.6) s
 900  811 mt  953  811 L
6265  811 mt 6211  811 L
 699  855 mt 
(5.8) s
 900  389 mt  953  389 L
6265  389 mt 6211  389 L
 799  433 mt 
(6) s
 900 4616 mt 6265 4616 L
 900  389 mt 6265  389 L
 900 4616 mt  900  389 L
6265 4616 mt 6265  389 L
gs 900 389 5366 4228 MR c np
/c8 { 0.000000 0.000000 1.000000 sr} bdef
c8
110 -18 109 -18 110 -18 109 -18 110 -18 109 -19 110 -19 109 -18 
110 -19 109 -20 110 -19 109 -20 110 -20 109 -20 110 -20 109 -21 
110 -21 109 -21 110 -21 109 -21 110 -22 109 -22 110 -22 109 -22 
110 -22 109 -22 110 -23 109 -22 110 -22 109 -22 110 -22 109 -21 
110 -21 109 -20 110 -19 109 -19 110 -18 109 -17 110 -16 109 -14 
110 -13 109 -11 110 -8 109 -5 110 3 109 17 110 46 109 122 
109 463 900 659 50 MP stroke
gr

c8
gs 827 403 5512 981 MR c np
  36   36  900  659 FO
  36   36 1009 1122 FO
  36   36 1118 1244 FO
  36   36 1228 1290 FO
  36   36 1337 1307 FO
  36   36 1447 1310 FO
  36   36 1556 1305 FO
  36   36 1666 1297 FO
  36   36 1775 1286 FO
  36   36 1885 1273 FO
  36   36 1994 1259 FO
  36   36 2104 1243 FO
  36   36 2213 1226 FO
  36   36 2323 1208 FO
  36   36 2432 1189 FO
  36   36 2542 1170 FO
  36   36 2651 1150 FO
  36   36 2761 1129 FO
  36   36 2870 1108 FO
  36   36 2980 1086 FO
  36   36 3089 1064 FO
  36   36 3199 1042 FO
  36   36 3308 1020 FO
  36   36 3418  997 FO
  36   36 3527  975 FO
  36   36 3637  953 FO
  36   36 3746  931 FO
  36   36 3856  909 FO
  36   36 3965  887 FO
  36   36 4075  865 FO
  36   36 4184  844 FO
  36   36 4294  823 FO
  36   36 4403  802 FO
  36   36 4513  781 FO
  36   36 4622  760 FO
  36   36 4732  740 FO
  36   36 4841  720 FO
  36   36 4951  700 FO
  36   36 5060  680 FO
  36   36 5170  661 FO
  36   36 5279  641 FO
  36   36 5389  622 FO
  36   36 5498  604 FO
  36   36 5608  585 FO
  36   36 5717  566 FO
  36   36 5827  548 FO
  36   36 5936  530 FO
  36   36 6046  512 FO
  36   36 6155  494 FO
  36   36 6265  476 FO
gr

gs 900 389 5366 4228 MR c np
/c9 { 1.000000 0.000000 1.000000 sr} bdef
c9
110 -28 109 -29 110 -28 109 -29 110 -30 109 -30 110 -30 109 -31 
110 -31 109 -31 110 -33 109 -32 110 -33 109 -34 110 -35 109 -35 
110 -35 109 -37 110 -37 109 -38 110 -38 109 -40 110 -40 109 -42 
110 -42 109 -43 110 -45 109 -46 110 -47 109 -49 110 -50 109 -52 
110 -54 109 -56 110 -58 109 -61 110 -64 109 -67 110 -72 109 -75 
110 -80 109 -86 110 -94 109 -101 110 -112 109 -124 110 -141 109 -161 
109 -115 900 4367 50 MP stroke
gr

c9
gs 827 1593 5512 2848 MR c np
0 j
-41 71 -41 -71 82 0 859 4391 4 MP
DP
-41 71 -41 -71 82 0 968 4276 4 MP
DP
-41 71 -41 -71 82 0 1077 4115 4 MP
DP
-41 71 -41 -71 82 0 1187 3974 4 MP
DP
-41 71 -41 -71 82 0 1296 3850 4 MP
DP
-41 71 -41 -71 82 0 1406 3738 4 MP
DP
-41 71 -41 -71 82 0 1515 3637 4 MP
DP
-41 71 -41 -71 82 0 1625 3543 4 MP
DP
-41 71 -41 -71 82 0 1734 3457 4 MP
DP
-41 71 -41 -71 82 0 1844 3377 4 MP
DP
-41 71 -41 -71 82 0 1953 3302 4 MP
DP
-41 71 -41 -71 82 0 2063 3230 4 MP
DP
-41 71 -41 -71 82 0 2172 3163 4 MP
DP
-41 71 -41 -71 82 0 2282 3099 4 MP
DP
-41 71 -41 -71 82 0 2391 3038 4 MP
DP
-41 71 -41 -71 82 0 2501 2980 4 MP
DP
-41 71 -41 -71 82 0 2610 2924 4 MP
DP
-41 71 -41 -71 82 0 2720 2870 4 MP
DP
-41 71 -41 -71 82 0 2829 2818 4 MP
DP
-41 71 -41 -71 82 0 2939 2768 4 MP
DP
-41 71 -41 -71 82 0 3048 2719 4 MP
DP
-41 71 -41 -71 82 0 3158 2672 4 MP
DP
-41 71 -41 -71 82 0 3267 2626 4 MP
DP
-41 71 -41 -71 82 0 3377 2581 4 MP
DP
-41 71 -41 -71 82 0 3486 2538 4 MP
DP
-41 71 -41 -71 82 0 3596 2496 4 MP
DP
-41 71 -41 -71 82 0 3705 2454 4 MP
DP
-41 71 -41 -71 82 0 3815 2414 4 MP
DP
-41 71 -41 -71 82 0 3924 2374 4 MP
DP
-41 71 -41 -71 82 0 4034 2336 4 MP
DP
-41 71 -41 -71 82 0 4143 2298 4 MP
DP
-41 71 -41 -71 82 0 4253 2261 4 MP
DP
-41 71 -41 -71 82 0 4362 2224 4 MP
DP
-41 71 -41 -71 82 0 4472 2189 4 MP
DP
-41 71 -41 -71 82 0 4581 2154 4 MP
DP
-41 71 -41 -71 82 0 4691 2119 4 MP
DP
-41 71 -41 -71 82 0 4800 2085 4 MP
DP
-41 71 -41 -71 82 0 4910 2052 4 MP
DP
-41 71 -41 -71 82 0 5019 2020 4 MP
DP
-41 71 -41 -71 82 0 5129 1987 4 MP
DP
-41 71 -41 -71 82 0 5238 1956 4 MP
DP
-41 71 -41 -71 82 0 5348 1925 4 MP
DP
-41 71 -41 -71 82 0 5457 1894 4 MP
DP
-41 71 -41 -71 82 0 5567 1864 4 MP
DP
-41 71 -41 -71 82 0 5676 1834 4 MP
DP
-41 71 -41 -71 82 0 5786 1804 4 MP
DP
-41 71 -41 -71 82 0 5895 1775 4 MP
DP
-41 71 -41 -71 82 0 6005 1747 4 MP
DP
-41 71 -41 -71 82 0 6114 1718 4 MP
DP
-41 71 -41 -71 82 0 6224 1690 4 MP
DP
gr

gs 900 389 5366 4228 MR c np
gs 1374 1237 147 147 MR c np
/c10 { 1.000000 0.000000 0.000000 sr} bdef
c10
1411 1310 mt 1483 1310 L
1447 1274 mt 1447 1346 L
1422 1285 mt 1472 1335 L
1472 1285 mt 1422 1335 L
gr

c10
gr

c10
0 sg
%%IncludeResource: font Symbol
/Symbol /ISOLatin1Encoding 180 FMSR

3529 4940 mt 
(m) s
%%IncludeResource: font Helvetica
/Helvetica /ISOLatin1Encoding 180 FMSR

 604 3336 mt  -90 rotate
(Average L2 DistError) s
90 rotate
%%IncludeResource: font Helvetica
/Helvetica /ISOLatin1Encoding 216 FMSR

1688  273 mt 
(Regularized Linear Regression Tradeoff) s
%%IncludeResource: font Helvetica
/Helvetica /ISOLatin1Encoding 120 FMSR

 883 4659 mt 
( ) s
6249  431 mt 
( ) s
1 sg
0 480 1513 0 0 -480 4693 929 4 MP
PP
-1513 0 0 480 1513 0 0 -480 4693 929 5 MP stroke
4 w
DO
SO
6 w
0 sg
4693  929 mt 6206  929 L
4693  449 mt 6206  449 L
4693  929 mt 4693  449 L
6206  929 mt 6206  449 L
4693  929 mt 6206  929 L
4693  929 mt 4693  449 L
4693  929 mt 6206  929 L
4693  449 mt 6206  449 L
4693  929 mt 4693  449 L
6206  929 mt 6206  449 L
5141  583 mt 
(testingError) s
gs 4693 449 1514 481 MR c np
c8
345 0 4761 540 2 MP stroke
gs 4860 467 147 147 MR c np
  36   36 4933  540 FO
gr

gr

c8
0 sg
5141  732 mt 
(trainingError) s
gs 4693 449 1514 481 MR c np
c9
345 0 4761 689 2 MP stroke
gs 4860 616 147 147 MR c np
0 j
-41 71 -41 -71 82 0 4892 713 4 MP
DP
gr

gr

c9
0 sg
5141  880 mt 
(Best Model Choice) s
gs 4693 449 1514 481 MR c np
gs 4860 764 147 147 MR c np
c10
4897  837 mt 4969  837 L
4933  801 mt 4933  873 L
4908  812 mt 4958  862 L
4958  812 mt 4908  862 L
gr

c10
gr

c10

end %%Color Dict

eplot
%%EndObject

epage
end

showpage

%%Trailer
%%EOF
