%!PS-Adobe-3.0 EPSF-3.0
%%Creator: MATLAB, The MathWorks, Inc. Version 7.12.0.635 (R2011a). Operating System: Microsoft Windows 7.
%%Title: D:\Stanford_Courses\Autumn_15-16\Eye_Gaze_Project\eye-gaze-tracking\AI\eye_gaze_prediction_hmm.eps
%%CreationDate: 12/06/2015  22:41:09
%%DocumentNeededFonts: Helvetica
%%DocumentProcessColors: Cyan Magenta Yellow Black
%%LanguageLevel: 2
%%Pages: 1
%%BoundingBox:    57   191   553   600
%%EndComments

%%BeginProlog
% MathWorks dictionary
/MathWorks 160 dict begin
% definition operators
/bdef {bind def} bind def
/ldef {load def} bind def
/xdef {exch def} bdef
/xstore {exch store} bdef
% operator abbreviations
/c  /clip ldef
/cc /concat ldef
/cp /closepath ldef
/gr /grestore ldef
/gs /gsave ldef
/mt /moveto ldef
/np /newpath ldef
/cm /currentmatrix ldef
/sm /setmatrix ldef
/rm /rmoveto ldef
/rl /rlineto ldef
/s {show newpath} bdef
/sc {setcmykcolor} bdef
/sr /setrgbcolor ldef
/sg /setgray ldef
/w /setlinewidth ldef
/j /setlinejoin ldef
/cap /setlinecap ldef
/rc {rectclip} bdef
/rf {rectfill} bdef
% page state control
/pgsv () def
/bpage {/pgsv save def} bdef
/epage {pgsv restore} bdef
/bplot /gsave ldef
/eplot {stroke grestore} bdef
% orientation switch
/portraitMode 0 def /landscapeMode 1 def /rotateMode 2 def
% coordinate system mappings
/dpi2point 0 def
% font control
/FontSize 0 def
/FMS {/FontSize xstore findfont [FontSize 0 0 FontSize neg 0 0]
  makefont setfont} bdef
/ISOLatin1Encoding where {pop /WindowsLatin1Encoding 256 array bdef
ISOLatin1Encoding WindowsLatin1Encoding copy pop
/.notdef/.notdef/quotesinglbase/florin/quotedblbase/ellipsis/dagger
/daggerdbl/circumflex/perthousand/Scaron/guilsinglleft/OE/.notdef/.notdef
/.notdef/.notdef/quoteleft/quoteright/quotedblleft/quotedblright/bullet
/endash/emdash/tilde/trademark/scaron/guilsinglright/oe/.notdef/.notdef
/Ydieresis WindowsLatin1Encoding 128 32 getinterval astore pop}
{/WindowsLatin1Encoding StandardEncoding bdef} ifelse
/reencode {exch dup where {pop load} {pop StandardEncoding} ifelse
  exch dup 3 1 roll findfont dup length dict begin
  { 1 index /FID ne {def}{pop pop} ifelse } forall
  /Encoding exch def currentdict end definefont pop} bdef
/isroman {findfont /CharStrings get /Agrave known} bdef
/FMSR {3 1 roll 1 index dup isroman {reencode} {pop pop} ifelse
  exch FMS} bdef
/csm {1 dpi2point div -1 dpi2point div scale neg translate
 dup landscapeMode eq {pop -90 rotate}
  {rotateMode eq {90 rotate} if} ifelse} bdef
% line types: solid, dotted, dashed, dotdash
/SO { [] 0 setdash } bdef
/DO { [.5 dpi2point mul 4 dpi2point mul] 0 setdash } bdef
/DA { [6 dpi2point mul] 0 setdash } bdef
/DD { [.5 dpi2point mul 4 dpi2point mul 6 dpi2point mul 4
  dpi2point mul] 0 setdash } bdef
% macros for lines and objects
/L {lineto stroke} bdef
/MP {3 1 roll moveto 1 sub {rlineto} repeat} bdef
/AP {{rlineto} repeat} bdef
/PDlw -1 def
/W {/PDlw currentlinewidth def setlinewidth} def
/PP {closepath eofill} bdef
/DP {closepath stroke} bdef
/MR {4 -2 roll moveto dup  0 exch rlineto exch 0 rlineto
  neg 0 exch rlineto closepath} bdef
/FR {MR stroke} bdef
/PR {MR fill} bdef
/L1i {{currentfile picstr readhexstring pop} image} bdef
/tMatrix matrix def
/MakeOval {newpath tMatrix currentmatrix pop translate scale
0 0 1 0 360 arc tMatrix setmatrix} bdef
/FO {MakeOval stroke} bdef
/PO {MakeOval fill} bdef
/PD {currentlinewidth 2 div 0 360 arc fill
   PDlw -1 eq not {PDlw w /PDlw -1 def} if} def
/FA {newpath tMatrix currentmatrix pop translate scale
  0 0 1 5 -2 roll arc tMatrix setmatrix stroke} bdef
/PA {newpath tMatrix currentmatrix pop	translate 0 0 moveto scale
  0 0 1 5 -2 roll arc closepath tMatrix setmatrix fill} bdef
/FAn {newpath tMatrix currentmatrix pop translate scale
  0 0 1 5 -2 roll arcn tMatrix setmatrix stroke} bdef
/PAn {newpath tMatrix currentmatrix pop translate 0 0 moveto scale
  0 0 1 5 -2 roll arcn closepath tMatrix setmatrix fill} bdef
/vradius 0 def /hradius 0 def /lry 0 def
/lrx 0 def /uly 0 def /ulx 0 def /rad 0 def
/MRR {/vradius xdef /hradius xdef /lry xdef /lrx xdef /uly xdef
  /ulx xdef newpath tMatrix currentmatrix pop ulx hradius add uly
  vradius add translate hradius vradius scale 0 0 1 180 270 arc 
  tMatrix setmatrix lrx hradius sub uly vradius add translate
  hradius vradius scale 0 0 1 270 360 arc tMatrix setmatrix
  lrx hradius sub lry vradius sub translate hradius vradius scale
  0 0 1 0 90 arc tMatrix setmatrix ulx hradius add lry vradius sub
  translate hradius vradius scale 0 0 1 90 180 arc tMatrix setmatrix
  closepath} bdef
/FRR {MRR stroke } bdef
/PRR {MRR fill } bdef
/MlrRR {/lry xdef /lrx xdef /uly xdef /ulx xdef /rad lry uly sub 2 div def
  newpath tMatrix currentmatrix pop ulx rad add uly rad add translate
  rad rad scale 0 0 1 90 270 arc tMatrix setmatrix lrx rad sub lry rad
  sub translate rad rad scale 0 0 1 270 90 arc tMatrix setmatrix
  closepath} bdef
/FlrRR {MlrRR stroke } bdef
/PlrRR {MlrRR fill } bdef
/MtbRR {/lry xdef /lrx xdef /uly xdef /ulx xdef /rad lrx ulx sub 2 div def
  newpath tMatrix currentmatrix pop ulx rad add uly rad add translate
  rad rad scale 0 0 1 180 360 arc tMatrix setmatrix lrx rad sub lry rad
  sub translate rad rad scale 0 0 1 0 180 arc tMatrix setmatrix
  closepath} bdef
/FtbRR {MtbRR stroke } bdef
/PtbRR {MtbRR fill } bdef
/stri 6 array def /dtri 6 array def
/smat 6 array def /dmat 6 array def
/tmat1 6 array def /tmat2 6 array def /dif 3 array def
/asub {/ind2 exch def /ind1 exch def dup dup
  ind1 get exch ind2 get sub exch } bdef
/tri_to_matrix {
  2 0 asub 3 1 asub 4 0 asub 5 1 asub
  dup 0 get exch 1 get 7 -1 roll astore } bdef
/compute_transform {
  dmat dtri tri_to_matrix tmat1 invertmatrix 
  smat stri tri_to_matrix tmat2 concatmatrix } bdef
/ds {stri astore pop} bdef
/dt {dtri astore pop} bdef
/db {2 copy /cols xdef /rows xdef mul dup 3 mul string
  currentfile 
  3 index 0 eq {/ASCIIHexDecode filter}
  {/ASCII85Decode filter 3 index 2 eq {/RunLengthDecode filter} if }
  ifelse exch readstring pop
  dup 0 3 index getinterval /rbmap xdef
  dup 2 index dup getinterval /gbmap xdef
  1 index dup 2 mul exch getinterval /bbmap xdef pop pop}bdef
/it {gs np dtri aload pop moveto lineto lineto cp c
  cols rows 8 compute_transform 
  rbmap gbmap bbmap true 3 colorimage gr}bdef
/il {newpath moveto lineto stroke}bdef
currentdict end def
%%EndProlog

%%BeginSetup
MathWorks begin

0 cap

end
%%EndSetup

%%Page: 1 1
%%BeginPageSetup
%%PageBoundingBox:    57   191   553   600
MathWorks begin
bpage
%%EndPageSetup

%%BeginObject: obj1
bplot

/dpi2point 12 def
portraitMode 0684 7200 csm

    0     0  5958  4905 rc
86 dict begin %Colortable dictionary
/c0 { 0.000000 0.000000 0.000000 sr} bdef
/c1 { 1.000000 1.000000 1.000000 sr} bdef
/c2 { 0.900000 0.000000 0.000000 sr} bdef
/c3 { 0.000000 0.820000 0.000000 sr} bdef
/c4 { 0.000000 0.000000 0.800000 sr} bdef
/c5 { 0.910000 0.820000 0.320000 sr} bdef
/c6 { 1.000000 0.260000 0.820000 sr} bdef
/c7 { 0.000000 0.820000 0.820000 sr} bdef
c0
1 j
1 sg
   0    0 5959 4906 rf
6 w
0 3997 4617 0 0 -3997 775 4365 4 MP
PP
-4617 0 0 3997 4617 0 0 -3997 775 4365 5 MP stroke
4 w
DO
SO
6 w
0 sg
 775  368 mt 5392  368 L
 775 4365 mt 5392 4365 L
5392 4365 mt 5392  368 L
 775 4365 mt  775  368 L
 775 4365 mt 5392 4365 L
 775 4365 mt  775  368 L
 775 4365 mt  775 4318 L
 775  368 mt  775  414 L
%%IncludeResource: font Helvetica
/Helvetica /WindowsLatin1Encoding 120 FMSR

 675 4510 mt 
(130) s
1352 4365 mt 1352 4318 L
1352  368 mt 1352  414 L
1252 4510 mt 
(140) s
1929 4365 mt 1929 4318 L
1929  368 mt 1929  414 L
1829 4510 mt 
(150) s
2506 4365 mt 2506 4318 L
2506  368 mt 2506  414 L
2406 4510 mt 
(160) s
3083 4365 mt 3083 4318 L
3083  368 mt 3083  414 L
2983 4510 mt 
(170) s
3660 4365 mt 3660 4318 L
3660  368 mt 3660  414 L
3560 4510 mt 
(180) s
4237 4365 mt 4237 4318 L
4237  368 mt 4237  414 L
4137 4510 mt 
(190) s
4814 4365 mt 4814 4318 L
4814  368 mt 4814  414 L
4714 4510 mt 
(200) s
5392 4365 mt 5392 4318 L
5392  368 mt 5392  414 L
5292 4510 mt 
(210) s
 775 4365 mt  821 4365 L
5392 4365 mt 5345 4365 L
 540 4409 mt 
(165) s
 775 3794 mt  821 3794 L
5392 3794 mt 5345 3794 L
 540 3838 mt 
(170) s
 775 3223 mt  821 3223 L
5392 3223 mt 5345 3223 L
 540 3267 mt 
(175) s
 775 2652 mt  821 2652 L
5392 2652 mt 5345 2652 L
 540 2696 mt 
(180) s
 775 2081 mt  821 2081 L
5392 2081 mt 5345 2081 L
 540 2125 mt 
(185) s
 775 1510 mt  821 1510 L
5392 1510 mt 5345 1510 L
 540 1554 mt 
(190) s
 775  939 mt  821  939 L
5392  939 mt 5345  939 L
 540  983 mt 
(195) s
 775  368 mt  821  368 L
5392  368 mt 5345  368 L
 540  412 mt 
(200) s
 775  368 mt 5392  368 L
 775 4365 mt 5392 4365 L
5392 4365 mt 5392  368 L
 775 4365 mt  775  368 L
gs 775 368 4618 3998 rc
24 w
/c8 { 0.000000 0.000000 1.000000 sr} bdef
c8
2 2 -1 -3 2276 2426 3 MP stroke
-58 -114 2333 2537 2 MP stroke
/c9 { 1.000000 0.000000 0.000000 sr} bdef
c9
2275 2652 PD
2275 2652 PD
DA
/c10 { 0.000000 1.000000 0.000000 sr} bdef
c10
2 -7 -3 4 2278 2648 3 MP stroke
-58 115 2333 2537 2 MP stroke
SO
c8
7 6 -5 -12 2049 2093 3 MP stroke
-231 -342 2275 2423 2 MP stroke
c9
18 32 -8 -44 2052 2010 3 MP stroke
-231 -686 2275 2652 2 MP stroke
DA
c10
-2 -16 -2 16 2277 2636 3 MP stroke
0 229 2275 2423 2 MP stroke
SO
c8
-6 -1 5 7 2212 2188 3 MP stroke
173 114 2044 2081 2 MP stroke
c9
2044 1966 PD
2044 1966 PD
DA
c10
1 8 1 -8 2043 1974 3 MP stroke
0 -115 2044 2081 2 MP stroke
SO
c8
-12 10 13 3 2608 2078 3 MP stroke
404 -114 2217 2195 2 MP stroke
c9
-49 25 49 24 2745 1942 3 MP stroke
750 0 2044 1966 2 MP stroke
DA
c10
11 8 -8 -18 2052 1984 3 MP stroke
-173 -229 2217 2195 2 MP stroke
SO
c8
-20 32 26 -10 3346 1405 3 MP stroke
751 -686 2621 2081 2 MP stroke
c9
-36 47 43 -8 3386 1518 3 MP stroke
635 -456 2794 1966 2 MP stroke
DA
c10
-9 13 11 -2 2783 1968 3 MP stroke
173 -115 2621 2081 2 MP stroke
SO
c8
-21 18 23 4 4041 1163 3 MP stroke
692 -228 3372 1395 2 MP stroke
c9
-50 24 50 25 4130 1485 3 MP stroke
751 0 3429 1510 2 MP stroke
DA
c10
-3 -4 2 7 3427 1503 3 MP stroke
57 115 3372 1395 2 MP stroke
SO
c8
-10 -2 8 11 4345 1384 3 MP stroke
289 228 4064 1167 2 MP stroke
c9
4180 1510 PD
4180 1510 PD
DA
c10
-9 -16 4 22 4176 1488 3 MP stroke
116 343 4064 1167 2 MP stroke
SO
c8
-12 20 15 -6 4799 945 3 MP stroke
461 -456 4353 1395 2 MP stroke
c9
-26 47 34 -18 4665 957 3 MP stroke
519 -571 4180 1510 2 MP stroke
DA
c10
9 -13 -11 2 4191 1508 3 MP stroke
-173 115 4353 1395 2 MP stroke
SO
c8
-10 19 13 -7 5205 489 3 MP stroke
404 -457 4814 939 2 MP stroke
c9
-38 42 43 -2 5291 598 3 MP stroke
635 -343 4699 939 2 MP stroke
DA
c10
8 -4 -8 -3 4707 942 3 MP stroke
-115 0 4814 939 2 MP stroke
SO
c8
9 -35 -16 22 4715 1602 3 MP stroke
-519 1142 5218 482 2 MP stroke
c9
28 -66 -40 33 4739 1477 3 MP stroke
-635 914 5334 596 2 MP stroke
DA
c10
-8 -3 6 10 5328 586 3 MP stroke
116 114 5218 482 2 MP stroke
SO
c8
65 -89 -78 18 2468 3319 3 MP stroke
-2309 1713 4699 1624 2 MP stroke
c9
137 -182 -164 32 2439 3191 3 MP stroke
-2424 1713 4699 1510 2 MP stroke
DA
c10
1 7 1 -7 4698 1517 3 MP stroke
0 -114 4699 1624 2 MP stroke
SO
c8
45 -46 -51 -2 941 4024 3 MP stroke
-1500 685 2390 3337 2 MP stroke
c9
85 -96 -98 6 930 4016 3 MP stroke
-1443 799 2275 3223 2 MP stroke
DA
c10
8 3 -6 -10 2281 3233 3 MP stroke
-115 -114 2390 3337 2 MP stroke
SO
c8
-1 3 2 -2 946 3910 3 MP stroke
58 -114 890 4022 2 MP stroke
c9
832 4022 PD
832 4022 PD
DA
c10
4 -2 -4 -2 836 4024 3 MP stroke
-58 0 890 4022 2 MP stroke
gr

24 w
c10
DA
0 sg
2798 4653 mt 
(X Location) s
 458 2651 mt  -90 rotate
(Y Location) s
90 rotate
1966  273 mt 
(True And Predicted Eye Gaze \(Sigma = 3\)) s
 758 4408 mt 
( ) s
5376  410 mt 
( ) s
SO
6 w
c8
282 7 4743 3312 2 MP stroke
-78 -2 119 48 4984 3273 3 MP
PP
-41 -46 -78 -2 119 48 4984 3273 4 MP stroke
44 -43 -122 41 5103 3321 3 MP
PP
78 2 44 -43 -122 41 5103 3321 4 MP stroke
c9
282 4 4734 3622 2 MP stroke
-78 -1 120 47 4974 3580 3 MP
PP
-42 -46 -78 -1 120 47 4974 3580 4 MP stroke
43 -44 -121 43 5094 3627 3 MP
PP
78 1 43 -44 -121 43 5094 3627 4 MP stroke
DA
c10
282 -3 4743 3883 2 MP stroke
-78 1 121 44 4982 3835 3 MP
PP
-43 -45 -78 1 121 44 4982 3835 4 MP stroke
42 -45 -120 46 5103 3879 3 MP
PP
78 -1 42 -45 -120 46 5103 3879 4 MP stroke
SO
0 sg
3527 4095 mt 5202 4095 L
5202 4095 mt 5202 3195 L
3527 4095 mt 3527 3195 L
3527 3195 mt 5202 3195 L
3588 3331 mt 
(True Eye Gaze ) s
3588 3607 mt 
(Predicted Eye Gaze) s
3588 3883 mt 
(Eye Gaze Error ) s

end %%Color Dict

eplot
%%EndObject

epage
end

showpage

%%Trailer
%%EOF
