%!PS-Adobe-3.0 EPSF-3.0
%%Creator: MATLAB, The MathWorks, Inc. Version 7.12.0.635 (R2011a). Operating System: Microsoft Windows 7.
%%Title: D:\Stanford_Courses\Autumn_15-16\Eye_Gaze_Project\eye-gaze-tracking\AI\predict_without_em.eps
%%CreationDate: 12/11/2015  00:41:36
%%DocumentNeededFonts: Helvetica
%%DocumentProcessColors: Cyan Magenta Yellow Black
%%LanguageLevel: 2
%%Pages: 1
%%BoundingBox:    96   238   515   553
%%EndComments

%%BeginProlog
% MathWorks dictionary
/MathWorks 160 dict begin
% definition operators
/bdef {bind def} bind def
/ldef {load def} bind def
/xdef {exch def} bdef
/xstore {exch store} bdef
% operator abbreviations
/c  /clip ldef
/cc /concat ldef
/cp /closepath ldef
/gr /grestore ldef
/gs /gsave ldef
/mt /moveto ldef
/np /newpath ldef
/cm /currentmatrix ldef
/sm /setmatrix ldef
/rm /rmoveto ldef
/rl /rlineto ldef
/s {show newpath} bdef
/sc {setcmykcolor} bdef
/sr /setrgbcolor ldef
/sg /setgray ldef
/w /setlinewidth ldef
/j /setlinejoin ldef
/cap /setlinecap ldef
/rc {rectclip} bdef
/rf {rectfill} bdef
% page state control
/pgsv () def
/bpage {/pgsv save def} bdef
/epage {pgsv restore} bdef
/bplot /gsave ldef
/eplot {stroke grestore} bdef
% orientation switch
/portraitMode 0 def /landscapeMode 1 def /rotateMode 2 def
% coordinate system mappings
/dpi2point 0 def
% font control
/FontSize 0 def
/FMS {/FontSize xstore findfont [FontSize 0 0 FontSize neg 0 0]
  makefont setfont} bdef
/ISOLatin1Encoding where {pop /WindowsLatin1Encoding 256 array bdef
ISOLatin1Encoding WindowsLatin1Encoding copy pop
/.notdef/.notdef/quotesinglbase/florin/quotedblbase/ellipsis/dagger
/daggerdbl/circumflex/perthousand/Scaron/guilsinglleft/OE/.notdef/.notdef
/.notdef/.notdef/quoteleft/quoteright/quotedblleft/quotedblright/bullet
/endash/emdash/tilde/trademark/scaron/guilsinglright/oe/.notdef/.notdef
/Ydieresis WindowsLatin1Encoding 128 32 getinterval astore pop}
{/WindowsLatin1Encoding StandardEncoding bdef} ifelse
/reencode {exch dup where {pop load} {pop StandardEncoding} ifelse
  exch dup 3 1 roll findfont dup length dict begin
  { 1 index /FID ne {def}{pop pop} ifelse } forall
  /Encoding exch def currentdict end definefont pop} bdef
/isroman {findfont /CharStrings get /Agrave known} bdef
/FMSR {3 1 roll 1 index dup isroman {reencode} {pop pop} ifelse
  exch FMS} bdef
/csm {1 dpi2point div -1 dpi2point div scale neg translate
 dup landscapeMode eq {pop -90 rotate}
  {rotateMode eq {90 rotate} if} ifelse} bdef
% line types: solid, dotted, dashed, dotdash
/SO { [] 0 setdash } bdef
/DO { [.5 dpi2point mul 4 dpi2point mul] 0 setdash } bdef
/DA { [6 dpi2point mul] 0 setdash } bdef
/DD { [.5 dpi2point mul 4 dpi2point mul 6 dpi2point mul 4
  dpi2point mul] 0 setdash } bdef
% macros for lines and objects
/L {lineto stroke} bdef
/MP {3 1 roll moveto 1 sub {rlineto} repeat} bdef
/AP {{rlineto} repeat} bdef
/PDlw -1 def
/W {/PDlw currentlinewidth def setlinewidth} def
/PP {closepath eofill} bdef
/DP {closepath stroke} bdef
/MR {4 -2 roll moveto dup  0 exch rlineto exch 0 rlineto
  neg 0 exch rlineto closepath} bdef
/FR {MR stroke} bdef
/PR {MR fill} bdef
/L1i {{currentfile picstr readhexstring pop} image} bdef
/tMatrix matrix def
/MakeOval {newpath tMatrix currentmatrix pop translate scale
0 0 1 0 360 arc tMatrix setmatrix} bdef
/FO {MakeOval stroke} bdef
/PO {MakeOval fill} bdef
/PD {currentlinewidth 2 div 0 360 arc fill
   PDlw -1 eq not {PDlw w /PDlw -1 def} if} def
/FA {newpath tMatrix currentmatrix pop translate scale
  0 0 1 5 -2 roll arc tMatrix setmatrix stroke} bdef
/PA {newpath tMatrix currentmatrix pop	translate 0 0 moveto scale
  0 0 1 5 -2 roll arc closepath tMatrix setmatrix fill} bdef
/FAn {newpath tMatrix currentmatrix pop translate scale
  0 0 1 5 -2 roll arcn tMatrix setmatrix stroke} bdef
/PAn {newpath tMatrix currentmatrix pop translate 0 0 moveto scale
  0 0 1 5 -2 roll arcn closepath tMatrix setmatrix fill} bdef
/vradius 0 def /hradius 0 def /lry 0 def
/lrx 0 def /uly 0 def /ulx 0 def /rad 0 def
/MRR {/vradius xdef /hradius xdef /lry xdef /lrx xdef /uly xdef
  /ulx xdef newpath tMatrix currentmatrix pop ulx hradius add uly
  vradius add translate hradius vradius scale 0 0 1 180 270 arc 
  tMatrix setmatrix lrx hradius sub uly vradius add translate
  hradius vradius scale 0 0 1 270 360 arc tMatrix setmatrix
  lrx hradius sub lry vradius sub translate hradius vradius scale
  0 0 1 0 90 arc tMatrix setmatrix ulx hradius add lry vradius sub
  translate hradius vradius scale 0 0 1 90 180 arc tMatrix setmatrix
  closepath} bdef
/FRR {MRR stroke } bdef
/PRR {MRR fill } bdef
/MlrRR {/lry xdef /lrx xdef /uly xdef /ulx xdef /rad lry uly sub 2 div def
  newpath tMatrix currentmatrix pop ulx rad add uly rad add translate
  rad rad scale 0 0 1 90 270 arc tMatrix setmatrix lrx rad sub lry rad
  sub translate rad rad scale 0 0 1 270 90 arc tMatrix setmatrix
  closepath} bdef
/FlrRR {MlrRR stroke } bdef
/PlrRR {MlrRR fill } bdef
/MtbRR {/lry xdef /lrx xdef /uly xdef /ulx xdef /rad lrx ulx sub 2 div def
  newpath tMatrix currentmatrix pop ulx rad add uly rad add translate
  rad rad scale 0 0 1 180 360 arc tMatrix setmatrix lrx rad sub lry rad
  sub translate rad rad scale 0 0 1 0 180 arc tMatrix setmatrix
  closepath} bdef
/FtbRR {MtbRR stroke } bdef
/PtbRR {MtbRR fill } bdef
/stri 6 array def /dtri 6 array def
/smat 6 array def /dmat 6 array def
/tmat1 6 array def /tmat2 6 array def /dif 3 array def
/asub {/ind2 exch def /ind1 exch def dup dup
  ind1 get exch ind2 get sub exch } bdef
/tri_to_matrix {
  2 0 asub 3 1 asub 4 0 asub 5 1 asub
  dup 0 get exch 1 get 7 -1 roll astore } bdef
/compute_transform {
  dmat dtri tri_to_matrix tmat1 invertmatrix 
  smat stri tri_to_matrix tmat2 concatmatrix } bdef
/ds {stri astore pop} bdef
/dt {dtri astore pop} bdef
/db {2 copy /cols xdef /rows xdef mul dup 3 mul string
  currentfile 
  3 index 0 eq {/ASCIIHexDecode filter}
  {/ASCII85Decode filter 3 index 2 eq {/RunLengthDecode filter} if }
  ifelse exch readstring pop
  dup 0 3 index getinterval /rbmap xdef
  dup 2 index dup getinterval /gbmap xdef
  1 index dup 2 mul exch getinterval /bbmap xdef pop pop}bdef
/it {gs np dtri aload pop moveto lineto lineto cp c
  cols rows 8 compute_transform 
  rbmap gbmap bbmap true 3 colorimage gr}bdef
/il {newpath moveto lineto stroke}bdef
currentdict end def
%%EndProlog

%%BeginSetup
MathWorks begin

0 cap

end
%%EndSetup

%%Page: 1 1
%%BeginPageSetup
%%PageBoundingBox:    96   238   515   553
MathWorks begin
bpage
%%EndPageSetup

%%BeginObject: obj1
bplot

/dpi2point 12 def
portraitMode 1152 6636 csm

    0     0  5039  3780 rc
85 dict begin %Colortable dictionary
/c0 { 0.000000 0.000000 0.000000 sr} bdef
/c1 { 1.000000 1.000000 1.000000 sr} bdef
/c2 { 0.900000 0.000000 0.000000 sr} bdef
/c3 { 0.000000 0.820000 0.000000 sr} bdef
/c4 { 0.000000 0.000000 0.800000 sr} bdef
/c5 { 0.910000 0.820000 0.320000 sr} bdef
/c6 { 1.000000 0.260000 0.820000 sr} bdef
/c7 { 0.000000 0.820000 0.820000 sr} bdef
c0
1 j
1 sg
   0    0 5040 3781 rf
6 w
0 3081 3906 0 0 -3081 654 3364 4 MP
PP
-3906 0 0 3081 3906 0 0 -3081 654 3364 5 MP stroke
4 w
DO
SO
6 w
0 sg
 654  283 mt 4560  283 L
 654 3364 mt 4560 3364 L
4560 3364 mt 4560  283 L
 654 3364 mt  654  283 L
 654 3364 mt 4560 3364 L
 654 3364 mt  654  283 L
 819 3364 mt  819 3324 L
 819  283 mt  819  322 L
%%IncludeResource: font Helvetica
/Helvetica /WindowsLatin1Encoding 120 FMSR

 719 3509 mt 
(200) s
1215 3364 mt 1215 3324 L
1215  283 mt 1215  322 L
1115 3509 mt 
(220) s
1612 3364 mt 1612 3324 L
1612  283 mt 1612  322 L
1512 3509 mt 
(240) s
2008 3364 mt 2008 3324 L
2008  283 mt 2008  322 L
1908 3509 mt 
(260) s
2404 3364 mt 2404 3324 L
2404  283 mt 2404  322 L
2304 3509 mt 
(280) s
2801 3364 mt 2801 3324 L
2801  283 mt 2801  322 L
2701 3509 mt 
(300) s
3197 3364 mt 3197 3324 L
3197  283 mt 3197  322 L
3097 3509 mt 
(320) s
3594 3364 mt 3594 3324 L
3594  283 mt 3594  322 L
3494 3509 mt 
(340) s
3990 3364 mt 3990 3324 L
3990  283 mt 3990  322 L
3890 3509 mt 
(360) s
4387 3364 mt 4387 3324 L
4387  283 mt 4387  322 L
4287 3509 mt 
(380) s
 654 3261 mt  694 3261 L
4560 3261 mt 4520 3261 L
 554 3305 mt 
(0) s
 654 2824 mt  694 2824 L
4560 2824 mt 4520 2824 L
 487 2868 mt 
(50) s
 654 2388 mt  694 2388 L
4560 2388 mt 4520 2388 L
 420 2432 mt 
(100) s
 654 1952 mt  694 1952 L
4560 1952 mt 4520 1952 L
 420 1996 mt 
(150) s
 654 1515 mt  694 1515 L
4560 1515 mt 4520 1515 L
 420 1559 mt 
(200) s
 654 1079 mt  694 1079 L
4560 1079 mt 4520 1079 L
 420 1123 mt 
(250) s
 654  643 mt  694  643 L
4560  643 mt 4520  643 L
 420  687 mt 
(300) s
 654  283 mt 4560  283 L
 654 3364 mt 4560 3364 L
4560 3364 mt 4560  283 L
 654 3364 mt  654  283 L
gs 654 283 3907 3082 rc
/c8 { 0.000000 0.000000 1.000000 sr} bdef
c8
16 -7 20 -9 20 -70 19 18 20 70 20 0 20 -184 20 -314 
19 -113 20 0 20 8 20 44 20 -70 20 -43 19 139 20 0 
20 -35 20 -70 20 -26 19 0 20 -26 20 -17 20 0 20 96 
20 43 19 0 20 26 20 -78 20 9 20 227 20 139 19 70 
20 70 20 -26 20 0 20 35 19 0 20 26 20 8 20 -43 
20 0 20 0 19 9 20 61 20 -123 20 -192 20 -69 19 17 
20 79 20 -18 20 -26 20 17 20 53 19 0 20 0 20 78 
20 410 20 367 20 -79 19 79 20 0 20 -79 20 44 20 18 
19 -550 20 -585 20 -52 20 -44 20 0 20 -17 19 35 20 0 
20 -35 20 61 20 52 20 -35 19 0 20 35 20 0 20 -279 
20 -567 19 -332 20 0 20 0 20 0 20 0 20 0 19 0 
20 2243 20 52 20 18 20 -105 19 -288 20 -183 20 35 20 0 
20 8 20 53 19 -27 20 18 20 43 20 -26 20 0 20 18 
19 0 20 8 20 9 20 358 20 367 19 61 20 34 20 35 
20 0 20 18 20 87 19 9 20 0 20 52 20 26 20 0 
19 -8 20 -306 20 -296 20 -27 20 -43 20 52 19 18 20 8 
20 26 20 18 20 -9 20 -9 19 -52 20 -17 20 61 20 -44 
20 0 19 9 20 -18 20 0 20 -8 20 -35 20 -35 19 9 
20 0 20 -9 20 -114 20 -87 19 -9 20 -35 20 -8 20 8 
20 9 20 0 19 0 20 35 20 35 20 -17 20 0 20 0 
19 17 20 26 20 9 20 0 20 -9 19 -52 20 -105 20 -61 
20 17 20 27 20 0 19 35 20 26 20 8 20 0 20 0 
20 53 19 26 20 0 20 17 20 0 20 -8 19 -53 20 -61 
20 9 20 44 20 35 20 -35 19 0 20 61 20 -79 20 -96 
20 -17 19 26 20 44 20 26 20 -79 6 -23 654 1399 199 MP stroke
DA
/c9 { 1.000000 0.000000 0.000000 sr} bdef
c9
16 0 20 0 20 0 19 0 20 0 20 0 20 0 20 0 
19 0 20 0 20 0 20 0 20 0 20 0 19 0 20 0 
20 0 20 0 20 0 19 0 20 0 20 0 20 0 20 0 
20 0 19 0 20 0 20 0 20 0 20 0 20 0 19 0 
20 0 20 0 20 0 20 0 19 0 20 0 20 0 20 0 
20 0 20 0 19 0 20 0 20 0 20 0 20 0 19 0 
20 0 20 0 20 0 20 0 20 0 19 0 20 0 20 0 
20 0 20 0 20 -17 19 0 20 0 20 0 20 0 20 0 
19 -402 20 0 20 0 20 0 20 314 20 -541 19 690 20 0 
20 0 20 0 20 -690 20 201 19 -384 20 0 20 0 20 0 
20 0 19 0 20 0 20 1169 20 166 20 -17 20 104 19 0 
20 0 20 96 20 0 20 -200 19 -271 20 -174 20 0 20 0 
20 78 20 53 19 -53 20 0 20 53 20 0 20 0 20 0 
19 0 20 0 20 43 20 332 20 358 19 78 20 0 20 113 
20 0 20 0 20 27 19 0 20 0 20 131 20 0 20 0 
19 0 20 -349 20 -219 20 0 20 -96 20 96 19 0 20 0 
20 0 20 18 20 -18 20 0 19 0 20 -96 20 96 20 0 
20 0 19 0 20 0 20 0 20 -96 20 0 20 -104 19 61 
20 0 20 -61 20 -27 20 -122 19 0 20 -35 20 0 20 0 
20 0 20 0 19 0 20 35 20 79 20 -79 20 0 20 0 
19 79 20 0 20 43 20 0 20 -43 19 -79 20 -122 20 -43 
20 0 20 43 20 0 19 0 20 87 20 0 20 0 20 0 
20 35 19 79 20 0 20 0 20 0 20 0 19 -79 20 -35 
20 0 20 35 20 0 20 0 19 0 20 79 20 -114 20 -87 
20 -43 19 43 20 0 20 87 20 -87 6 -32 654 1469 199 MP stroke
gr

c9
DA
0 sg
2436 3652 mt 
(Frame) s
 338 2087 mt  -90 rotate
(X location) s
90 rotate
 730  188 mt 
(Posterior Estimation for X location w/o using emissions aft\
er frame 300) s
SO

end %%Color Dict

eplot
%%EndObject

epage
end

showpage

%%Trailer
%%EOF
