barley15.stanford.edu
Tue Nov 24 21:49:28 PST 2015
start

                            < M A T L A B (R) >
                  Copyright 1984-2015 The MathWorks, Inc.
                   R2015b (8.6.0.267246) 64-bit (glnxa64)
                              August 20, 2015

 
To get started, type one of these: helpwin, helpdesk, or demo.
For product information, visit www.mathworks.com.
 
Setting CVX paths...done.

	Academic License


performance =

    4.4128


trainPerformance =

    3.0556


valPerformance =

   12.0711


performance =

   18.5714


trainPerformance =

   14.7731


valPerformance =

   40.0047


performance =

   10.7247


trainPerformance =

    7.2796


valPerformance =

   30.1649


performance =

   14.6658


trainPerformance =

    1.9825


valPerformance =

   86.2355


performance =

    3.9600


trainPerformance =

   2.1339e-08


valPerformance =

   26.3059


performance =

    5.1498


trainPerformance =

    0.0149


valPerformance =

   34.1256


performance =

    1.8709


trainPerformance =

    1.8709


valPerformance =

   NaN


performance =

    0.3496


trainPerformance =

    0.3496


valPerformance =

   NaN


performance =

    0.0899


trainPerformance =

    0.0899


valPerformance =

   NaN


performance =

   5.9676e-13


trainPerformance =

   5.9676e-13


valPerformance =

   NaN


performance =

   2.7304e-11


trainPerformance =

   2.7304e-11


valPerformance =

   NaN


performance =

   1.8512e-09


trainPerformance =

   1.8512e-09


valPerformance =

   NaN


performance =

   16.9953


trainPerformance =

   15.1264


valPerformance =

   27.5407


performance =

   35.6003


trainPerformance =

   34.2838


valPerformance =

   43.0293


performance =

   22.5497


trainPerformance =

   21.8694


valPerformance =

   26.3888


performance =

   16.0846


trainPerformance =

   14.6569


valPerformance =

   24.1408


performance =

   30.9839


trainPerformance =

   27.4599


valPerformance =

   50.8698


performance =

   39.6695


trainPerformance =

   37.6813


valPerformance =

   50.8886

end
/farmshare/software/free/oge/2011.11p1/FStrusty/spool/barley15/job_scripts/658159: line 29: data: command not found
