%!PS-Adobe-2.0 EPSF-1.2
%%Creator: MATLAB, The MathWorks, Inc. Version 8.3.0.532 (R2014a). Operating System: Darwin 15.0.0 Darwin Kernel Version 15.0.0: Sat Sep 19 15:53:46 PDT 2015; root:xnu-3247.10.11~1/RELEASE_X86_64 x86_64.
%%Title: ./AllTestErrorCombined.eps
%%CreationDate: 12/01/2015  00:35:18
%%DocumentNeededFonts: Helvetica
%%DocumentProcessColors: Cyan Magenta Yellow Black
%%Extensions: CMYK
%%Pages: 1
%%BoundingBox:    55   193   550   612
%%EndComments

%%BeginProlog
% MathWorks dictionary
/MathWorks 160 dict begin
% definition operators
/bdef {bind def} bind def
/ldef {load def} bind def
/xdef {exch def} bdef
/xstore {exch store} bdef
% operator abbreviations
/c  /clip ldef
/cc /concat ldef
/cp /closepath ldef
/gr /grestore ldef
/gs /gsave ldef
/mt /moveto ldef
/np /newpath ldef
/cm /currentmatrix ldef
/sm /setmatrix ldef
/rm /rmoveto ldef
/rl /rlineto ldef
/s {show newpath} bdef
/sc {setcmykcolor} bdef
/sr /setrgbcolor ldef
/sg /setgray ldef
/w /setlinewidth ldef
/j /setlinejoin ldef
/cap /setlinecap ldef
/rc {rectclip} bdef
/rf {rectfill} bdef
% page state control
/pgsv () def
/bpage {/pgsv save def} bdef
/epage {pgsv restore} bdef
/bplot /gsave ldef
/eplot {stroke grestore} bdef
% orientation switch
/portraitMode 0 def /landscapeMode 1 def /rotateMode 2 def
% coordinate system mappings
/dpi2point 0 def
% font control
/FontSize 0 def
/FMS {/FontSize xstore findfont [FontSize 0 0 FontSize neg 0 0]
  makefont setfont} bdef
/reencode {exch dup where {pop load} {pop StandardEncoding} ifelse
  exch dup 3 1 roll findfont dup length dict begin
  { 1 index /FID ne {def}{pop pop} ifelse } forall
  /Encoding exch def currentdict end definefont pop} bdef
/isroman {findfont /CharStrings get /Agrave known} bdef
/FMSR {3 1 roll 1 index dup isroman {reencode} {pop pop} ifelse
  exch FMS} bdef
/csm {1 dpi2point div -1 dpi2point div scale neg translate
 dup landscapeMode eq {pop -90 rotate}
  {rotateMode eq {90 rotate} if} ifelse} bdef
% line types: solid, dotted, dashed, dotdash
/SO { [] 0 setdash } bdef
/DO { [.5 dpi2point mul 4 dpi2point mul] 0 setdash } bdef
/DA { [6 dpi2point mul] 0 setdash } bdef
/DD { [.5 dpi2point mul 4 dpi2point mul 6 dpi2point mul 4
  dpi2point mul] 0 setdash } bdef
% macros for lines and objects
/L {lineto stroke} bdef
/MP {3 1 roll moveto 1 sub {rlineto} repeat} bdef
/AP {{rlineto} repeat} bdef
/PDlw -1 def
/W {/PDlw currentlinewidth def setlinewidth} def
/PP {closepath eofill} bdef
/DP {closepath stroke} bdef
/MR {4 -2 roll moveto dup  0 exch rlineto exch 0 rlineto
  neg 0 exch rlineto closepath} bdef
/FR {MR stroke} bdef
/PR {MR fill} bdef
/L1i {{currentfile picstr readhexstring pop} image} bdef
/tMatrix matrix def
/MakeOval {newpath tMatrix currentmatrix pop translate scale
0 0 1 0 360 arc tMatrix setmatrix} bdef
/FO {MakeOval stroke} bdef
/PO {MakeOval fill} bdef
/PD {currentlinewidth 2 div 0 360 arc fill
   PDlw -1 eq not {PDlw w /PDlw -1 def} if} def
/FA {newpath tMatrix currentmatrix pop translate scale
  0 0 1 5 -2 roll arc tMatrix setmatrix stroke} bdef
/PA {newpath tMatrix currentmatrix pop	translate 0 0 moveto scale
  0 0 1 5 -2 roll arc closepath tMatrix setmatrix fill} bdef
/FAn {newpath tMatrix currentmatrix pop translate scale
  0 0 1 5 -2 roll arcn tMatrix setmatrix stroke} bdef
/PAn {newpath tMatrix currentmatrix pop translate 0 0 moveto scale
  0 0 1 5 -2 roll arcn closepath tMatrix setmatrix fill} bdef
/vradius 0 def /hradius 0 def /lry 0 def
/lrx 0 def /uly 0 def /ulx 0 def /rad 0 def
/MRR {/vradius xdef /hradius xdef /lry xdef /lrx xdef /uly xdef
  /ulx xdef newpath tMatrix currentmatrix pop ulx hradius add uly
  vradius add translate hradius vradius scale 0 0 1 180 270 arc 
  tMatrix setmatrix lrx hradius sub uly vradius add translate
  hradius vradius scale 0 0 1 270 360 arc tMatrix setmatrix
  lrx hradius sub lry vradius sub translate hradius vradius scale
  0 0 1 0 90 arc tMatrix setmatrix ulx hradius add lry vradius sub
  translate hradius vradius scale 0 0 1 90 180 arc tMatrix setmatrix
  closepath} bdef
/FRR {MRR stroke } bdef
/PRR {MRR fill } bdef
/MlrRR {/lry xdef /lrx xdef /uly xdef /ulx xdef /rad lry uly sub 2 div def
  newpath tMatrix currentmatrix pop ulx rad add uly rad add translate
  rad rad scale 0 0 1 90 270 arc tMatrix setmatrix lrx rad sub lry rad
  sub translate rad rad scale 0 0 1 270 90 arc tMatrix setmatrix
  closepath} bdef
/FlrRR {MlrRR stroke } bdef
/PlrRR {MlrRR fill } bdef
/MtbRR {/lry xdef /lrx xdef /uly xdef /ulx xdef /rad lrx ulx sub 2 div def
  newpath tMatrix currentmatrix pop ulx rad add uly rad add translate
  rad rad scale 0 0 1 180 360 arc tMatrix setmatrix lrx rad sub lry rad
  sub translate rad rad scale 0 0 1 0 180 arc tMatrix setmatrix
  closepath} bdef
/FtbRR {MtbRR stroke } bdef
/PtbRR {MtbRR fill } bdef
/stri 6 array def /dtri 6 array def
/smat 6 array def /dmat 6 array def
/tmat1 6 array def /tmat2 6 array def /dif 3 array def
/asub {/ind2 exch def /ind1 exch def dup dup
  ind1 get exch ind2 get sub exch } bdef
/tri_to_matrix {
  2 0 asub 3 1 asub 4 0 asub 5 1 asub
  dup 0 get exch 1 get 7 -1 roll astore } bdef
/compute_transform {
  dmat dtri tri_to_matrix tmat1 invertmatrix 
  smat stri tri_to_matrix tmat2 concatmatrix } bdef
/ds {stri astore pop} bdef
/dt {dtri astore pop} bdef
/db {2 copy /cols xdef /rows xdef mul dup 3 mul string
  currentfile exch readhexstring pop
  dup 0 3 index getinterval /rbmap xdef
  dup 2 index dup getinterval /gbmap xdef
  1 index dup 2 mul exch getinterval /bbmap xdef pop pop}bdef
/it {gs np dtri aload pop moveto lineto lineto cp c
  cols rows 8 compute_transform 
  rbmap gbmap bbmap true 3 colorimage gr}bdef
/il {newpath moveto lineto stroke}bdef
currentdict end def
%%EndProlog

%%BeginSetup
MathWorks begin

0 cap

end
%%EndSetup

%%Page: 1 1
%%BeginPageSetup
%%PageBoundingBox:    55   193   550   612
MathWorks begin
bpage
%%EndPageSetup

%%BeginObject: obj1
bplot

/dpi2point 12 def
portraitMode 0216 7344 csm

  445    -1  5942  5018 MR c np
89 dict begin %Colortable dictionary
/c0 { 0.000000 0.000000 0.000000 sr} bdef
/c1 { 1.000000 1.000000 1.000000 sr} bdef
/c2 { 0.900000 0.000000 0.000000 sr} bdef
/c3 { 0.000000 0.820000 0.000000 sr} bdef
/c4 { 0.000000 0.000000 0.800000 sr} bdef
/c5 { 0.910000 0.820000 0.320000 sr} bdef
/c6 { 1.000000 0.260000 0.820000 sr} bdef
/c7 { 0.000000 0.820000 0.820000 sr} bdef
c0
1 j
1 sg
   0    0 6924 5187 PR
6 w
0 4227 5365 0 0 -4227 900 4616 4 MP
PP
-5365 0 0 4227 5365 0 0 -4227 900 4616 5 MP stroke
4 w
DO
SO
6 w
0 sg
 900 4616 mt 6265 4616 L
 900  389 mt 6265  389 L
 900 4616 mt  900  389 L
6265 4616 mt 6265  389 L
 900 4616 mt 6265 4616 L
 900 4616 mt  900  389 L
 900 4616 mt  900 4562 L
 900  389 mt  900  442 L
%%IncludeResource: font Helvetica
/Helvetica /ISOLatin1Encoding 120 FMSR

 867 4761 mt 
(0) s
1436 4616 mt 1436 4562 L
1436  389 mt 1436  442 L
1403 4761 mt 
(1) s
1973 4616 mt 1973 4562 L
1973  389 mt 1973  442 L
1940 4761 mt 
(2) s
2509 4616 mt 2509 4562 L
2509  389 mt 2509  442 L
2476 4761 mt 
(3) s
3046 4616 mt 3046 4562 L
3046  389 mt 3046  442 L
3013 4761 mt 
(4) s
3582 4616 mt 3582 4562 L
3582  389 mt 3582  442 L
3549 4761 mt 
(5) s
4119 4616 mt 4119 4562 L
4119  389 mt 4119  442 L
4086 4761 mt 
(6) s
4655 4616 mt 4655 4562 L
4655  389 mt 4655  442 L
4622 4761 mt 
(7) s
5192 4616 mt 5192 4562 L
5192  389 mt 5192  442 L
5159 4761 mt 
(8) s
5728 4616 mt 5728 4562 L
5728  389 mt 5728  442 L
5695 4761 mt 
(9) s
6265 4616 mt 6265 4562 L
6265  389 mt 6265  442 L
6199 4761 mt 
(10) s
 900 4616 mt  953 4616 L
6265 4616 mt 6211 4616 L
 799 4660 mt 
(4) s
 900 4012 mt  953 4012 L
6265 4012 mt 6211 4012 L
 799 4056 mt 
(6) s
 900 3408 mt  953 3408 L
6265 3408 mt 6211 3408 L
 799 3452 mt 
(8) s
 900 2804 mt  953 2804 L
6265 2804 mt 6211 2804 L
 732 2848 mt 
(10) s
 900 2200 mt  953 2200 L
6265 2200 mt 6211 2200 L
 732 2244 mt 
(12) s
 900 1596 mt  953 1596 L
6265 1596 mt 6211 1596 L
 732 1640 mt 
(14) s
 900  992 mt  953  992 L
6265  992 mt 6211  992 L
 732 1036 mt 
(16) s
 900  389 mt  953  389 L
6265  389 mt 6211  389 L
 732  433 mt 
(18) s
 900 4616 mt 6265 4616 L
 900  389 mt 6265  389 L
 900 4616 mt  900  389 L
6265 4616 mt 6265  389 L
gs 900 389 5366 4228 MR c np
/c8 { 0.000000 0.000000 1.000000 sr} bdef
c8
283 -293 282 -108 283 -234 282 -160 282 -225 283 -266 282 -216 282 16 
283 -148 282 -91 283 -149 282 -3 282 -97 283 -173 282 -51 282 -164 
283 -101 282 -43 282 -136 900 3554 20 MP stroke
gr

c8
gs 827 839 5512 2789 MR c np
  36   36  900 3554 FO
  36   36 1182 3418 FO
  36   36 1464 3375 FO
  36   36 1747 3274 FO
  36   36 2029 3110 FO
  36   36 2311 3059 FO
  36   36 2594 2886 FO
  36   36 2876 2789 FO
  36   36 3158 2786 FO
  36   36 3441 2637 FO
  36   36 3723 2546 FO
  36   36 4006 2398 FO
  36   36 4288 2414 FO
  36   36 4570 2198 FO
  36   36 4853 1932 FO
  36   36 5135 1707 FO
  36   36 5417 1547 FO
  36   36 5700 1313 FO
  36   36 5982 1205 FO
  36   36 6265  912 FO
gr

gs 900 389 5366 4228 MR c np
gr

gs 851 3505 99 99 MR c np
0 sg
  24   24  900 3554 PO
  24   24  900 3554 FO
gr

0 sg
gs 900 389 5366 4228 MR c np
/c9 { 1.000000 0.000000 0.000000 sr} bdef
c9
283 -98 282 -187 283 -244 282 -184 282 -150 283 -224 282 -197 282 -147 
283 -195 282 -238 283 -232 282 -207 282 -69 283 -60 282 43 282 40 
283 135 282 108 282 80 900 3570 20 MP stroke
gr

c9
gs 827 1471 5512 2579 MR c np
  36   36  900 3570 FO
  36   36 1182 3650 FO
  36   36 1464 3758 FO
  36   36 1747 3893 FO
  36   36 2029 3933 FO
  36   36 2311 3976 FO
  36   36 2594 3916 FO
  36   36 2876 3847 FO
  36   36 3158 3640 FO
  36   36 3441 3408 FO
  36   36 3723 3170 FO
  36   36 4006 2975 FO
  36   36 4288 2828 FO
  36   36 4570 2631 FO
  36   36 4853 2407 FO
  36   36 5135 2257 FO
  36   36 5417 2073 FO
  36   36 5700 1829 FO
  36   36 5982 1642 FO
  36   36 6265 1544 FO
gr

gs 900 389 5366 4228 MR c np
gs 2262 3927 99 99 MR c np
0 sg
  24   24 2311 3976 PO
  24   24 2311 3976 FO
gr

0 sg
/c10 { 0.000000 1.000000 0.000000 sr} bdef
c10
283 -288 282 -186 283 -185 282 -214 282 -177 283 -152 282 -210 282 -224 
283 -235 282 -222 283 -109 282 -228 282 -116 283 -35 282 12 282 69 
283 95 282 130 282 209 900 3610 20 MP stroke
gr

c10
gs 827 1471 5512 2728 MR c np
  36   36  900 3610 FO
  36   36 1182 3819 FO
  36   36 1464 3949 FO
  36   36 1747 4044 FO
  36   36 2029 4113 FO
  36   36 2311 4125 FO
  36   36 2594 4090 FO
  36   36 2876 3974 FO
  36   36 3158 3746 FO
  36   36 3441 3637 FO
  36   36 3723 3415 FO
  36   36 4006 3180 FO
  36   36 4288 2956 FO
  36   36 4570 2746 FO
  36   36 4853 2594 FO
  36   36 5135 2417 FO
  36   36 5417 2203 FO
  36   36 5700 2018 FO
  36   36 5982 1832 FO
  36   36 6265 1544 FO
gr

gs 900 389 5366 4228 MR c np
gs 2262 4076 99 99 MR c np
0 sg
  24   24 2311 4125 PO
  24   24 2311 4125 FO
gr

0 sg
/c11 { 0.000000 0.000000 0.172414 sr} bdef
c11
283 -191 282 -181 283 -252 282 -383 282 -488 283 -80 282 -308 282 -228 
283 -242 282 -218 283 -228 282 -114 282 -138 283 -114 282 -21 282 16 
283 56 282 98 282 131 900 4098 20 MP stroke
gr

c11
gs 827 1140 5512 3333 MR c np
  36   36  900 4098 FO
  36   36 1182 4229 FO
  36   36 1464 4327 FO
  36   36 1747 4383 FO
  36   36 2029 4399 FO
  36   36 2311 4378 FO
  36   36 2594 4264 FO
  36   36 2876 4126 FO
  36   36 3158 4012 FO
  36   36 3441 3784 FO
  36   36 3723 3566 FO
  36   36 4006 3324 FO
  36   36 4288 3096 FO
  36   36 4570 2788 FO
  36   36 4853 2708 FO
  36   36 5135 2220 FO
  36   36 5417 1837 FO
  36   36 5700 1585 FO
  36   36 5982 1404 FO
  36   36 6265 1213 FO
gr

gs 900 389 5366 4228 MR c np
gs 1980 4350 99 99 MR c np
0 sg
  24   24 2029 4399 PO
  24   24 2029 4399 FO
gr

0 sg
/c12 { 1.000000 0.103448 0.724138 sr} bdef
c12
283 -198 282 -298 283 -276 282 -105 282 -129 283 -410 282 -246 282 -171 
283 -187 282 -439 283 -392 282 -214 282 -144 283 -97 282 -94 282 -36 
283 5 282 17 282 71 900 4412 20 MP stroke
gr

c12
gs 827 996 5512 3583 MR c np
  36   36  900 4412 FO
  36   36 1182 4483 FO
  36   36 1464 4500 FO
  36   36 1747 4505 FO
  36   36 2029 4469 FO
  36   36 2311 4375 FO
  36   36 2594 4278 FO
  36   36 2876 4134 FO
  36   36 3158 3920 FO
  36   36 3441 3528 FO
  36   36 3723 3089 FO
  36   36 4006 2902 FO
  36   36 4288 2731 FO
  36   36 4570 2485 FO
  36   36 4853 2075 FO
  36   36 5135 1946 FO
  36   36 5417 1841 FO
  36   36 5700 1565 FO
  36   36 5982 1267 FO
  36   36 6265 1069 FO
gr

gs 900 389 5366 4228 MR c np
gs 1698 4456 99 99 MR c np
0 sg
  24   24 1747 4505 PO
  24   24 1747 4505 FO
gr

0 sg
/c13 { 1.000000 0.827586 0.000000 sr} bdef
c13
283 -178 282 -378 283 -123 282 162 282 -178 283 -246 282 -403 282 -89 
283 -168 282 -359 283 -590 282 -170 282 -232 283 -219 282 -121 282 69 
283 -86 282 -185 282 11 900 4494 20 MP stroke
gr

c13
gs 827 938 5512 3641 MR c np
  36   36  900 4494 FO
  36   36 1182 4505 FO
  36   36 1464 4320 FO
  36   36 1747 4234 FO
  36   36 2029 4303 FO
  36   36 2311 4182 FO
  36   36 2594 3963 FO
  36   36 2876 3731 FO
  36   36 3158 3561 FO
  36   36 3441 2971 FO
  36   36 3723 2612 FO
  36   36 4006 2444 FO
  36   36 4288 2355 FO
  36   36 4570 1952 FO
  36   36 4853 1706 FO
  36   36 5135 1528 FO
  36   36 5417 1690 FO
  36   36 5700 1567 FO
  36   36 5982 1189 FO
  36   36 6265 1011 FO
gr

gs 900 389 5366 4228 MR c np
gs 1133 4456 99 99 MR c np
0 sg
  24   24 1182 4505 PO
  24   24 1182 4505 FO
gr

0 sg
gr

0 sg
%%IncludeResource: font Symbol
/Symbol /ISOLatin1Encoding 180 FMSR

3541 4940 mt 
(e) s
%%IncludeResource: font Helvetica
/Helvetica /ISOLatin1Encoding 180 FMSR

 637 3336 mt  -90 rotate
(Average L2 DistError) s
90 rotate
%%IncludeResource: font Helvetica
/Helvetica /ISOLatin1Encoding 216 FMSR

2623  273 mt 
(SVR model Tradeoff) s
%%IncludeResource: font Helvetica
/Helvetica /ISOLatin1Encoding 120 FMSR

 883 4659 mt 
( ) s
6249  431 mt 
( ) s
1 sg
0 1332 1342 0 0 -1332 959 1781 4 MP
PP
-1342 0 0 1332 1342 0 0 -1332 959 1781 5 MP stroke
4 w
DO
SO
6 w
0 sg
 959 1781 mt 2301 1781 L
 959  449 mt 2301  449 L
 959 1781 mt  959  449 L
2301 1781 mt 2301  449 L
 959 1781 mt 2301 1781 L
 959 1781 mt  959  449 L
 959 1781 mt 2301 1781 L
 959  449 mt 2301  449 L
 959 1781 mt  959  449 L
2301 1781 mt 2301  449 L
%%IncludeResource: font Helvetica
/Helvetica /ISOLatin1Encoding 180 FMSR

1423  639 mt 
(C = 10) s
gs 959 449 1343 1333 MR c np
c8
356 0 1030 575 2 MP stroke
gs 1135 502 147 147 MR c np
  36   36 1208  575 FO
gr

gr

c8
0 sg
1423  855 mt 
(C = 40) s
gs 959 449 1343 1333 MR c np
c9
356 0 1030 791 2 MP stroke
gs 1135 718 147 147 MR c np
  36   36 1208  791 FO
gr

gr

c9
0 sg
1423 1071 mt 
(C = 70) s
gs 959 449 1343 1333 MR c np
c10
356 0 1030 1007 2 MP stroke
gs 1135 934 147 147 MR c np
  36   36 1208 1007 FO
gr

gr

c10
0 sg
1423 1288 mt 
(C = 200) s
gs 959 449 1343 1333 MR c np
c11
356 0 1030 1222 2 MP stroke
gs 1135 1149 147 147 MR c np
  36   36 1208 1222 FO
gr

gr

c11
0 sg
1423 1504 mt 
(C = 800) s
gs 959 449 1343 1333 MR c np
c12
356 0 1030 1438 2 MP stroke
gs 1135 1365 147 147 MR c np
  36   36 1208 1438 FO
gr

gr

c12
0 sg
1423 1720 mt 
(C = 10000) s
gs 959 449 1343 1333 MR c np
c13
356 0 1030 1654 2 MP stroke
gs 1135 1581 147 147 MR c np
  36   36 1208 1654 FO
gr

gr

c13

end %%Color Dict

eplot
%%EndObject

epage
end

showpage

%%Trailer
%%EOF
