%!PS-Adobe-2.0 EPSF-1.2
%%Creator: MATLAB, The MathWorks, Inc. Version 8.3.0.532 (R2014a). Operating System: Darwin 15.0.0 Darwin Kernel Version 15.0.0: Sat Sep 19 15:53:46 PDT 2015; root:xnu-3247.10.11~1/RELEASE_X86_64 x86_64.
%%Title: ./AllTestErrorCombined.eps
%%CreationDate: 12/06/2015  16:06:46
%%DocumentNeededFonts: Helvetica
%%DocumentProcessColors: Cyan Magenta Yellow Black
%%Extensions: CMYK
%%Pages: 1
%%BoundingBox:    44   193   550   612
%%EndComments

%%BeginProlog
% MathWorks dictionary
/MathWorks 160 dict begin
% definition operators
/bdef {bind def} bind def
/ldef {load def} bind def
/xdef {exch def} bdef
/xstore {exch store} bdef
% operator abbreviations
/c  /clip ldef
/cc /concat ldef
/cp /closepath ldef
/gr /grestore ldef
/gs /gsave ldef
/mt /moveto ldef
/np /newpath ldef
/cm /currentmatrix ldef
/sm /setmatrix ldef
/rm /rmoveto ldef
/rl /rlineto ldef
/s {show newpath} bdef
/sc {setcmykcolor} bdef
/sr /setrgbcolor ldef
/sg /setgray ldef
/w /setlinewidth ldef
/j /setlinejoin ldef
/cap /setlinecap ldef
/rc {rectclip} bdef
/rf {rectfill} bdef
% page state control
/pgsv () def
/bpage {/pgsv save def} bdef
/epage {pgsv restore} bdef
/bplot /gsave ldef
/eplot {stroke grestore} bdef
% orientation switch
/portraitMode 0 def /landscapeMode 1 def /rotateMode 2 def
% coordinate system mappings
/dpi2point 0 def
% font control
/FontSize 0 def
/FMS {/FontSize xstore findfont [FontSize 0 0 FontSize neg 0 0]
  makefont setfont} bdef
/reencode {exch dup where {pop load} {pop StandardEncoding} ifelse
  exch dup 3 1 roll findfont dup length dict begin
  { 1 index /FID ne {def}{pop pop} ifelse } forall
  /Encoding exch def currentdict end definefont pop} bdef
/isroman {findfont /CharStrings get /Agrave known} bdef
/FMSR {3 1 roll 1 index dup isroman {reencode} {pop pop} ifelse
  exch FMS} bdef
/csm {1 dpi2point div -1 dpi2point div scale neg translate
 dup landscapeMode eq {pop -90 rotate}
  {rotateMode eq {90 rotate} if} ifelse} bdef
% line types: solid, dotted, dashed, dotdash
/SO { [] 0 setdash } bdef
/DO { [.5 dpi2point mul 4 dpi2point mul] 0 setdash } bdef
/DA { [6 dpi2point mul] 0 setdash } bdef
/DD { [.5 dpi2point mul 4 dpi2point mul 6 dpi2point mul 4
  dpi2point mul] 0 setdash } bdef
% macros for lines and objects
/L {lineto stroke} bdef
/MP {3 1 roll moveto 1 sub {rlineto} repeat} bdef
/AP {{rlineto} repeat} bdef
/PDlw -1 def
/W {/PDlw currentlinewidth def setlinewidth} def
/PP {closepath eofill} bdef
/DP {closepath stroke} bdef
/MR {4 -2 roll moveto dup  0 exch rlineto exch 0 rlineto
  neg 0 exch rlineto closepath} bdef
/FR {MR stroke} bdef
/PR {MR fill} bdef
/L1i {{currentfile picstr readhexstring pop} image} bdef
/tMatrix matrix def
/MakeOval {newpath tMatrix currentmatrix pop translate scale
0 0 1 0 360 arc tMatrix setmatrix} bdef
/FO {MakeOval stroke} bdef
/PO {MakeOval fill} bdef
/PD {currentlinewidth 2 div 0 360 arc fill
   PDlw -1 eq not {PDlw w /PDlw -1 def} if} def
/FA {newpath tMatrix currentmatrix pop translate scale
  0 0 1 5 -2 roll arc tMatrix setmatrix stroke} bdef
/PA {newpath tMatrix currentmatrix pop	translate 0 0 moveto scale
  0 0 1 5 -2 roll arc closepath tMatrix setmatrix fill} bdef
/FAn {newpath tMatrix currentmatrix pop translate scale
  0 0 1 5 -2 roll arcn tMatrix setmatrix stroke} bdef
/PAn {newpath tMatrix currentmatrix pop translate 0 0 moveto scale
  0 0 1 5 -2 roll arcn closepath tMatrix setmatrix fill} bdef
/vradius 0 def /hradius 0 def /lry 0 def
/lrx 0 def /uly 0 def /ulx 0 def /rad 0 def
/MRR {/vradius xdef /hradius xdef /lry xdef /lrx xdef /uly xdef
  /ulx xdef newpath tMatrix currentmatrix pop ulx hradius add uly
  vradius add translate hradius vradius scale 0 0 1 180 270 arc 
  tMatrix setmatrix lrx hradius sub uly vradius add translate
  hradius vradius scale 0 0 1 270 360 arc tMatrix setmatrix
  lrx hradius sub lry vradius sub translate hradius vradius scale
  0 0 1 0 90 arc tMatrix setmatrix ulx hradius add lry vradius sub
  translate hradius vradius scale 0 0 1 90 180 arc tMatrix setmatrix
  closepath} bdef
/FRR {MRR stroke } bdef
/PRR {MRR fill } bdef
/MlrRR {/lry xdef /lrx xdef /uly xdef /ulx xdef /rad lry uly sub 2 div def
  newpath tMatrix currentmatrix pop ulx rad add uly rad add translate
  rad rad scale 0 0 1 90 270 arc tMatrix setmatrix lrx rad sub lry rad
  sub translate rad rad scale 0 0 1 270 90 arc tMatrix setmatrix
  closepath} bdef
/FlrRR {MlrRR stroke } bdef
/PlrRR {MlrRR fill } bdef
/MtbRR {/lry xdef /lrx xdef /uly xdef /ulx xdef /rad lrx ulx sub 2 div def
  newpath tMatrix currentmatrix pop ulx rad add uly rad add translate
  rad rad scale 0 0 1 180 360 arc tMatrix setmatrix lrx rad sub lry rad
  sub translate rad rad scale 0 0 1 0 180 arc tMatrix setmatrix
  closepath} bdef
/FtbRR {MtbRR stroke } bdef
/PtbRR {MtbRR fill } bdef
/stri 6 array def /dtri 6 array def
/smat 6 array def /dmat 6 array def
/tmat1 6 array def /tmat2 6 array def /dif 3 array def
/asub {/ind2 exch def /ind1 exch def dup dup
  ind1 get exch ind2 get sub exch } bdef
/tri_to_matrix {
  2 0 asub 3 1 asub 4 0 asub 5 1 asub
  dup 0 get exch 1 get 7 -1 roll astore } bdef
/compute_transform {
  dmat dtri tri_to_matrix tmat1 invertmatrix 
  smat stri tri_to_matrix tmat2 concatmatrix } bdef
/ds {stri astore pop} bdef
/dt {dtri astore pop} bdef
/db {2 copy /cols xdef /rows xdef mul dup 3 mul string
  currentfile exch readhexstring pop
  dup 0 3 index getinterval /rbmap xdef
  dup 2 index dup getinterval /gbmap xdef
  1 index dup 2 mul exch getinterval /bbmap xdef pop pop}bdef
/it {gs np dtri aload pop moveto lineto lineto cp c
  cols rows 8 compute_transform 
  rbmap gbmap bbmap true 3 colorimage gr}bdef
/il {newpath moveto lineto stroke}bdef
currentdict end def
%%EndProlog

%%BeginSetup
MathWorks begin

0 cap

end
%%EndSetup

%%Page: 1 1
%%BeginPageSetup
%%PageBoundingBox:    44   193   550   612
MathWorks begin
bpage
%%EndPageSetup

%%BeginObject: obj1
bplot

/dpi2point 12 def
portraitMode 0216 7344 csm

  312    -1  6075  5018 MR c np
89 dict begin %Colortable dictionary
/c0 { 0.000000 0.000000 0.000000 sr} bdef
/c1 { 1.000000 1.000000 1.000000 sr} bdef
/c2 { 0.900000 0.000000 0.000000 sr} bdef
/c3 { 0.000000 0.820000 0.000000 sr} bdef
/c4 { 0.000000 0.000000 0.800000 sr} bdef
/c5 { 0.910000 0.820000 0.320000 sr} bdef
/c6 { 1.000000 0.260000 0.820000 sr} bdef
/c7 { 0.000000 0.820000 0.820000 sr} bdef
c0
1 j
1 sg
   0    0 6924 5187 PR
6 w
0 4227 5365 0 0 -4227 900 4616 4 MP
PP
-5365 0 0 4227 5365 0 0 -4227 900 4616 5 MP stroke
4 w
DO
SO
6 w
0 sg
 900 4616 mt 6265 4616 L
 900  389 mt 6265  389 L
 900 4616 mt  900  389 L
6265 4616 mt 6265  389 L
 900 4616 mt 6265 4616 L
 900 4616 mt  900  389 L
 900 4616 mt  900 4562 L
 900  389 mt  900  442 L
%%IncludeResource: font Helvetica
/Helvetica /ISOLatin1Encoding 120 FMSR

 867 4761 mt 
(0) s
1436 4616 mt 1436 4562 L
1436  389 mt 1436  442 L
1403 4761 mt 
(1) s
1973 4616 mt 1973 4562 L
1973  389 mt 1973  442 L
1940 4761 mt 
(2) s
2509 4616 mt 2509 4562 L
2509  389 mt 2509  442 L
2476 4761 mt 
(3) s
3046 4616 mt 3046 4562 L
3046  389 mt 3046  442 L
3013 4761 mt 
(4) s
3582 4616 mt 3582 4562 L
3582  389 mt 3582  442 L
3549 4761 mt 
(5) s
4119 4616 mt 4119 4562 L
4119  389 mt 4119  442 L
4086 4761 mt 
(6) s
4655 4616 mt 4655 4562 L
4655  389 mt 4655  442 L
4622 4761 mt 
(7) s
5192 4616 mt 5192 4562 L
5192  389 mt 5192  442 L
5159 4761 mt 
(8) s
5728 4616 mt 5728 4562 L
5728  389 mt 5728  442 L
5695 4761 mt 
(9) s
6265 4616 mt 6265 4562 L
6265  389 mt 6265  442 L
6199 4761 mt 
(10) s
 900 4616 mt  953 4616 L
6265 4616 mt 6211 4616 L
 799 4660 mt 
(0) s
 900 3911 mt  953 3911 L
6265 3911 mt 6211 3911 L
 665 3955 mt 
(500) s
 900 3207 mt  953 3207 L
6265 3207 mt 6211 3207 L
 599 3251 mt 
(1000) s
 900 2502 mt  953 2502 L
6265 2502 mt 6211 2502 L
 599 2546 mt 
(1500) s
 900 1798 mt  953 1798 L
6265 1798 mt 6211 1798 L
 599 1842 mt 
(2000) s
 900 1093 mt  953 1093 L
6265 1093 mt 6211 1093 L
 599 1137 mt 
(2500) s
 900  389 mt  953  389 L
6265  389 mt 6211  389 L
 599  433 mt 
(3000) s
 900 4616 mt 6265 4616 L
 900  389 mt 6265  389 L
 900 4616 mt  900  389 L
6265 4616 mt 6265  389 L
gs 900 389 5366 4228 MR c np
/c8 { 0.000000 0.000000 1.000000 sr} bdef
c8
283 0 282 0 283 0 282 0 282 0 283 0 282 0 282 0 
283 0 282 -1 283 1 282 -1 282 0 283 -1 282 1 282 0 
283 0 282 1 282 0 900 4529 20 MP stroke
gr

c8
gs 827 4456 5512 149 MR c np
  36   36  900 4529 FO
  36   36 1182 4529 FO
  36   36 1464 4530 FO
  36   36 1747 4530 FO
  36   36 2029 4530 FO
  36   36 2311 4531 FO
  36   36 2594 4530 FO
  36   36 2876 4530 FO
  36   36 3158 4529 FO
  36   36 3441 4530 FO
  36   36 3723 4529 FO
  36   36 4006 4529 FO
  36   36 4288 4529 FO
  36   36 4570 4529 FO
  36   36 4853 4529 FO
  36   36 5135 4529 FO
  36   36 5417 4529 FO
  36   36 5700 4529 FO
  36   36 5982 4529 FO
  36   36 6265 4529 FO
gr

gs 900 389 5366 4228 MR c np
gs 2262 4482 99 99 MR c np
0 sg
  24   24 2311 4531 PO
  24   24 2311 4531 FO
gr

0 sg
/c9 { 1.000000 0.000000 0.000000 sr} bdef
c9
283 0 282 0 283 0 282 0 282 0 283 0 282 0 282 0 
283 0 282 0 283 0 282 1 282 -1 283 -2 282 -1 282 1 
283 2 282 7 282 8 900 4514 20 MP stroke
gr

c9
gs 827 4441 5512 165 MR c np
  36   36  900 4514 FO
  36   36 1182 4522 FO
  36   36 1464 4529 FO
  36   36 1747 4531 FO
  36   36 2029 4532 FO
  36   36 2311 4531 FO
  36   36 2594 4529 FO
  36   36 2876 4528 FO
  36   36 3158 4529 FO
  36   36 3441 4529 FO
  36   36 3723 4529 FO
  36   36 4006 4529 FO
  36   36 4288 4529 FO
  36   36 4570 4529 FO
  36   36 4853 4529 FO
  36   36 5135 4529 FO
  36   36 5417 4529 FO
  36   36 5700 4529 FO
  36   36 5982 4529 FO
  36   36 6265 4529 FO
gr

gs 900 389 5366 4228 MR c np
gs 1980 4483 99 99 MR c np
0 sg
  24   24 2029 4532 PO
  24   24 2029 4532 FO
gr

0 sg
/c10 { 0.000000 1.000000 0.000000 sr} bdef
c10
283 0 282 0 283 0 282 0 282 0 283 0 282 0 282 0 
283 0 282 0 283 0 282 1 282 0 283 -2 282 -1 282 1 
283 5 282 12 282 16 900 4497 20 MP stroke
gr

c10
gs 827 4424 5512 181 MR c np
  36   36  900 4497 FO
  36   36 1182 4513 FO
  36   36 1464 4525 FO
  36   36 1747 4530 FO
  36   36 2029 4531 FO
  36   36 2311 4530 FO
  36   36 2594 4528 FO
  36   36 2876 4528 FO
  36   36 3158 4529 FO
  36   36 3441 4529 FO
  36   36 3723 4529 FO
  36   36 4006 4529 FO
  36   36 4288 4529 FO
  36   36 4570 4529 FO
  36   36 4853 4529 FO
  36   36 5135 4529 FO
  36   36 5417 4529 FO
  36   36 5700 4529 FO
  36   36 5982 4529 FO
  36   36 6265 4529 FO
gr

gs 900 389 5366 4228 MR c np
gs 1980 4482 99 99 MR c np
0 sg
  24   24 2029 4531 PO
  24   24 2029 4531 FO
gr

0 sg
/c11 { 0.000000 0.000000 0.172414 sr} bdef
c11
283 0 282 0 283 0 282 0 282 0 283 0 282 0 282 0 
283 0 282 0 283 0 282 2 282 1 283 1 282 -2 282 9 
283 16 282 37 282 36 900 4429 20 MP stroke
gr

c11
gs 827 4356 5512 247 MR c np
  36   36  900 4429 FO
  36   36 1182 4465 FO
  36   36 1464 4502 FO
  36   36 1747 4518 FO
  36   36 2029 4527 FO
  36   36 2311 4525 FO
  36   36 2594 4526 FO
  36   36 2876 4527 FO
  36   36 3158 4529 FO
  36   36 3441 4529 FO
  36   36 3723 4529 FO
  36   36 4006 4529 FO
  36   36 4288 4529 FO
  36   36 4570 4529 FO
  36   36 4853 4529 FO
  36   36 5135 4529 FO
  36   36 5417 4529 FO
  36   36 5700 4529 FO
  36   36 5982 4529 FO
  36   36 6265 4529 FO
gr

gs 900 389 5366 4228 MR c np
gs 3674 4480 99 99 MR c np
0 sg
  24   24 3723 4529 PO
  24   24 3723 4529 FO
gr

0 sg
/c12 { 1.000000 0.103448 0.724138 sr} bdef
c12
283 0 282 0 283 0 282 0 282 0 283 0 282 0 282 0 
283 0 282 0 283 0 282 2 282 1 283 1 282 6 282 45 
283 106 282 140 282 188 900 4040 20 MP stroke
gr

c12
gs 827 3967 5512 636 MR c np
  36   36  900 4040 FO
  36   36 1182 4228 FO
  36   36 1464 4368 FO
  36   36 1747 4474 FO
  36   36 2029 4519 FO
  36   36 2311 4525 FO
  36   36 2594 4526 FO
  36   36 2876 4527 FO
  36   36 3158 4529 FO
  36   36 3441 4529 FO
  36   36 3723 4529 FO
  36   36 4006 4529 FO
  36   36 4288 4529 FO
  36   36 4570 4529 FO
  36   36 4853 4529 FO
  36   36 5135 4529 FO
  36   36 5417 4529 FO
  36   36 5700 4529 FO
  36   36 5982 4529 FO
  36   36 6265 4529 FO
gr

gs 900 389 5366 4228 MR c np
gs 3674 4480 99 99 MR c np
0 sg
  24   24 3723 4529 PO
  24   24 3723 4529 FO
gr

0 sg
/c13 { 1.000000 0.827586 0.000000 sr} bdef
c13
283 0 282 0 283 0 282 0 282 0 283 0 282 0 282 0 
283 0 282 0 283 0 282 2 282 1 283 1 282 8 282 74 
283 373 282 1380 282 2203 900 487 20 MP stroke
gr

c13
gs 827 414 5512 4189 MR c np
  36   36  900  487 FO
  36   36 1182 2690 FO
  36   36 1464 4070 FO
  36   36 1747 4443 FO
  36   36 2029 4517 FO
  36   36 2311 4525 FO
  36   36 2594 4526 FO
  36   36 2876 4527 FO
  36   36 3158 4529 FO
  36   36 3441 4529 FO
  36   36 3723 4529 FO
  36   36 4006 4529 FO
  36   36 4288 4529 FO
  36   36 4570 4529 FO
  36   36 4853 4529 FO
  36   36 5135 4529 FO
  36   36 5417 4529 FO
  36   36 5700 4529 FO
  36   36 5982 4529 FO
  36   36 6265 4529 FO
gr

gs 900 389 5366 4228 MR c np
gs 3674 4480 99 99 MR c np
0 sg
  24   24 3723 4529 PO
  24   24 3723 4529 FO
gr

0 sg
gr

0 sg
%%IncludeResource: font Symbol
/Symbol /ISOLatin1Encoding 180 FMSR

3541 4940 mt 
(e) s
%%IncludeResource: font Helvetica
/Helvetica /ISOLatin1Encoding 180 FMSR

 504 3336 mt  -90 rotate
(Average L2 DistError) s
90 rotate
%%IncludeResource: font Helvetica
/Helvetica /ISOLatin1Encoding 216 FMSR

2623  273 mt 
(SVR model Tradeoff) s
%%IncludeResource: font Helvetica
/Helvetica /ISOLatin1Encoding 120 FMSR

 883 4659 mt 
( ) s
6249  431 mt 
( ) s
1 sg
0 1332 1342 0 0 -1332 959 1781 4 MP
PP
-1342 0 0 1332 1342 0 0 -1332 959 1781 5 MP stroke
4 w
DO
SO
6 w
0 sg
 959 1781 mt 2301 1781 L
 959  449 mt 2301  449 L
 959 1781 mt  959  449 L
2301 1781 mt 2301  449 L
 959 1781 mt 2301 1781 L
 959 1781 mt  959  449 L
 959 1781 mt 2301 1781 L
 959  449 mt 2301  449 L
 959 1781 mt  959  449 L
2301 1781 mt 2301  449 L
%%IncludeResource: font Helvetica
/Helvetica /ISOLatin1Encoding 180 FMSR

1423  639 mt 
(C = 10) s
gs 959 449 1343 1333 MR c np
c8
356 0 1030 575 2 MP stroke
gs 1135 502 147 147 MR c np
  36   36 1208  575 FO
gr

gr

c8
0 sg
1423  855 mt 
(C = 40) s
gs 959 449 1343 1333 MR c np
c9
356 0 1030 791 2 MP stroke
gs 1135 718 147 147 MR c np
  36   36 1208  791 FO
gr

gr

c9
0 sg
1423 1071 mt 
(C = 70) s
gs 959 449 1343 1333 MR c np
c10
356 0 1030 1007 2 MP stroke
gs 1135 934 147 147 MR c np
  36   36 1208 1007 FO
gr

gr

c10
0 sg
1423 1288 mt 
(C = 200) s
gs 959 449 1343 1333 MR c np
c11
356 0 1030 1222 2 MP stroke
gs 1135 1149 147 147 MR c np
  36   36 1208 1222 FO
gr

gr

c11
0 sg
1423 1504 mt 
(C = 800) s
gs 959 449 1343 1333 MR c np
c12
356 0 1030 1438 2 MP stroke
gs 1135 1365 147 147 MR c np
  36   36 1208 1438 FO
gr

gr

c12
0 sg
1423 1720 mt 
(C = 10000) s
gs 959 449 1343 1333 MR c np
c13
356 0 1030 1654 2 MP stroke
gs 1135 1581 147 147 MR c np
  36   36 1208 1654 FO
gr

gr

c13

end %%Color Dict

eplot
%%EndObject

epage
end

showpage

%%Trailer
%%EOF
