%!PS-Adobe-2.0 EPSF-1.2
%%Creator: MATLAB, The MathWorks, Inc. Version 8.3.0.532 (R2014a). Operating System: Darwin 15.0.0 Darwin Kernel Version 15.0.0: Sat Sep 19 15:53:46 PDT 2015; root:xnu-3247.10.11~1/RELEASE_X86_64 x86_64.
%%Title: ./testANDtrainError.eps
%%CreationDate: 11/14/2015  18:35:22
%%DocumentNeededFonts: Helvetica
%%DocumentProcessColors: Cyan Magenta Yellow Black
%%Extensions: CMYK
%%Pages: 1
%%BoundingBox:    52   193   553   612
%%EndComments

%%BeginProlog
% MathWorks dictionary
/MathWorks 160 dict begin
% definition operators
/bdef {bind def} bind def
/ldef {load def} bind def
/xdef {exch def} bdef
/xstore {exch store} bdef
% operator abbreviations
/c  /clip ldef
/cc /concat ldef
/cp /closepath ldef
/gr /grestore ldef
/gs /gsave ldef
/mt /moveto ldef
/np /newpath ldef
/cm /currentmatrix ldef
/sm /setmatrix ldef
/rm /rmoveto ldef
/rl /rlineto ldef
/s {show newpath} bdef
/sc {setcmykcolor} bdef
/sr /setrgbcolor ldef
/sg /setgray ldef
/w /setlinewidth ldef
/j /setlinejoin ldef
/cap /setlinecap ldef
/rc {rectclip} bdef
/rf {rectfill} bdef
% page state control
/pgsv () def
/bpage {/pgsv save def} bdef
/epage {pgsv restore} bdef
/bplot /gsave ldef
/eplot {stroke grestore} bdef
% orientation switch
/portraitMode 0 def /landscapeMode 1 def /rotateMode 2 def
% coordinate system mappings
/dpi2point 0 def
% font control
/FontSize 0 def
/FMS {/FontSize xstore findfont [FontSize 0 0 FontSize neg 0 0]
  makefont setfont} bdef
/reencode {exch dup where {pop load} {pop StandardEncoding} ifelse
  exch dup 3 1 roll findfont dup length dict begin
  { 1 index /FID ne {def}{pop pop} ifelse } forall
  /Encoding exch def currentdict end definefont pop} bdef
/isroman {findfont /CharStrings get /Agrave known} bdef
/FMSR {3 1 roll 1 index dup isroman {reencode} {pop pop} ifelse
  exch FMS} bdef
/csm {1 dpi2point div -1 dpi2point div scale neg translate
 dup landscapeMode eq {pop -90 rotate}
  {rotateMode eq {90 rotate} if} ifelse} bdef
% line types: solid, dotted, dashed, dotdash
/SO { [] 0 setdash } bdef
/DO { [.5 dpi2point mul 4 dpi2point mul] 0 setdash } bdef
/DA { [6 dpi2point mul] 0 setdash } bdef
/DD { [.5 dpi2point mul 4 dpi2point mul 6 dpi2point mul 4
  dpi2point mul] 0 setdash } bdef
% macros for lines and objects
/L {lineto stroke} bdef
/MP {3 1 roll moveto 1 sub {rlineto} repeat} bdef
/AP {{rlineto} repeat} bdef
/PDlw -1 def
/W {/PDlw currentlinewidth def setlinewidth} def
/PP {closepath eofill} bdef
/DP {closepath stroke} bdef
/MR {4 -2 roll moveto dup  0 exch rlineto exch 0 rlineto
  neg 0 exch rlineto closepath} bdef
/FR {MR stroke} bdef
/PR {MR fill} bdef
/L1i {{currentfile picstr readhexstring pop} image} bdef
/tMatrix matrix def
/MakeOval {newpath tMatrix currentmatrix pop translate scale
0 0 1 0 360 arc tMatrix setmatrix} bdef
/FO {MakeOval stroke} bdef
/PO {MakeOval fill} bdef
/PD {currentlinewidth 2 div 0 360 arc fill
   PDlw -1 eq not {PDlw w /PDlw -1 def} if} def
/FA {newpath tMatrix currentmatrix pop translate scale
  0 0 1 5 -2 roll arc tMatrix setmatrix stroke} bdef
/PA {newpath tMatrix currentmatrix pop	translate 0 0 moveto scale
  0 0 1 5 -2 roll arc closepath tMatrix setmatrix fill} bdef
/FAn {newpath tMatrix currentmatrix pop translate scale
  0 0 1 5 -2 roll arcn tMatrix setmatrix stroke} bdef
/PAn {newpath tMatrix currentmatrix pop translate 0 0 moveto scale
  0 0 1 5 -2 roll arcn closepath tMatrix setmatrix fill} bdef
/vradius 0 def /hradius 0 def /lry 0 def
/lrx 0 def /uly 0 def /ulx 0 def /rad 0 def
/MRR {/vradius xdef /hradius xdef /lry xdef /lrx xdef /uly xdef
  /ulx xdef newpath tMatrix currentmatrix pop ulx hradius add uly
  vradius add translate hradius vradius scale 0 0 1 180 270 arc 
  tMatrix setmatrix lrx hradius sub uly vradius add translate
  hradius vradius scale 0 0 1 270 360 arc tMatrix setmatrix
  lrx hradius sub lry vradius sub translate hradius vradius scale
  0 0 1 0 90 arc tMatrix setmatrix ulx hradius add lry vradius sub
  translate hradius vradius scale 0 0 1 90 180 arc tMatrix setmatrix
  closepath} bdef
/FRR {MRR stroke } bdef
/PRR {MRR fill } bdef
/MlrRR {/lry xdef /lrx xdef /uly xdef /ulx xdef /rad lry uly sub 2 div def
  newpath tMatrix currentmatrix pop ulx rad add uly rad add translate
  rad rad scale 0 0 1 90 270 arc tMatrix setmatrix lrx rad sub lry rad
  sub translate rad rad scale 0 0 1 270 90 arc tMatrix setmatrix
  closepath} bdef
/FlrRR {MlrRR stroke } bdef
/PlrRR {MlrRR fill } bdef
/MtbRR {/lry xdef /lrx xdef /uly xdef /ulx xdef /rad lrx ulx sub 2 div def
  newpath tMatrix currentmatrix pop ulx rad add uly rad add translate
  rad rad scale 0 0 1 180 360 arc tMatrix setmatrix lrx rad sub lry rad
  sub translate rad rad scale 0 0 1 0 180 arc tMatrix setmatrix
  closepath} bdef
/FtbRR {MtbRR stroke } bdef
/PtbRR {MtbRR fill } bdef
/stri 6 array def /dtri 6 array def
/smat 6 array def /dmat 6 array def
/tmat1 6 array def /tmat2 6 array def /dif 3 array def
/asub {/ind2 exch def /ind1 exch def dup dup
  ind1 get exch ind2 get sub exch } bdef
/tri_to_matrix {
  2 0 asub 3 1 asub 4 0 asub 5 1 asub
  dup 0 get exch 1 get 7 -1 roll astore } bdef
/compute_transform {
  dmat dtri tri_to_matrix tmat1 invertmatrix 
  smat stri tri_to_matrix tmat2 concatmatrix } bdef
/ds {stri astore pop} bdef
/dt {dtri astore pop} bdef
/db {2 copy /cols xdef /rows xdef mul dup 3 mul string
  currentfile exch readhexstring pop
  dup 0 3 index getinterval /rbmap xdef
  dup 2 index dup getinterval /gbmap xdef
  1 index dup 2 mul exch getinterval /bbmap xdef pop pop}bdef
/it {gs np dtri aload pop moveto lineto lineto cp c
  cols rows 8 compute_transform 
  rbmap gbmap bbmap true 3 colorimage gr}bdef
/il {newpath moveto lineto stroke}bdef
currentdict end def
%%EndProlog

%%BeginSetup
MathWorks begin

0 cap

end
%%EndSetup

%%Page: 1 1
%%BeginPageSetup
%%PageBoundingBox:    52   193   553   612
MathWorks begin
bpage
%%EndPageSetup

%%BeginObject: obj1
bplot

/dpi2point 12 def
portraitMode 0216 7344 csm

  412    -1  6019  5018 MR c np
86 dict begin %Colortable dictionary
/c0 { 0.000000 0.000000 0.000000 sr} bdef
/c1 { 1.000000 1.000000 1.000000 sr} bdef
/c2 { 0.900000 0.000000 0.000000 sr} bdef
/c3 { 0.000000 0.820000 0.000000 sr} bdef
/c4 { 0.000000 0.000000 0.800000 sr} bdef
/c5 { 0.910000 0.820000 0.320000 sr} bdef
/c6 { 1.000000 0.260000 0.820000 sr} bdef
/c7 { 0.000000 0.820000 0.820000 sr} bdef
c0
1 j
1 sg
   0    0 6924 5187 PR
6 w
0 4227 5365 0 0 -4227 900 4616 4 MP
PP
-5365 0 0 4227 5365 0 0 -4227 900 4616 5 MP stroke
4 w
DO
SO
6 w
0 sg
 900 4616 mt 6265 4616 L
 900  389 mt 6265  389 L
 900 4616 mt  900  389 L
6265 4616 mt 6265  389 L
 900 4616 mt 6265 4616 L
 900 4616 mt  900  389 L
 900 4616 mt  900 4562 L
 900  389 mt  900  442 L
%%IncludeResource: font Helvetica
/Helvetica /ISOLatin1Encoding 120 FMSR

 867 4761 mt 
(0) s
1436 4616 mt 1436 4562 L
1436  389 mt 1436  442 L
1286 4761 mt 
(0.001) s
1973 4616 mt 1973 4562 L
1973  389 mt 1973  442 L
1823 4761 mt 
(0.002) s
2509 4616 mt 2509 4562 L
2509  389 mt 2509  442 L
2359 4761 mt 
(0.003) s
3046 4616 mt 3046 4562 L
3046  389 mt 3046  442 L
2896 4761 mt 
(0.004) s
3582 4616 mt 3582 4562 L
3582  389 mt 3582  442 L
3432 4761 mt 
(0.005) s
4119 4616 mt 4119 4562 L
4119  389 mt 4119  442 L
3969 4761 mt 
(0.006) s
4655 4616 mt 4655 4562 L
4655  389 mt 4655  442 L
4505 4761 mt 
(0.007) s
5192 4616 mt 5192 4562 L
5192  389 mt 5192  442 L
5042 4761 mt 
(0.008) s
5728 4616 mt 5728 4562 L
5728  389 mt 5728  442 L
5578 4761 mt 
(0.009) s
6265 4616 mt 6265 4562 L
6265  389 mt 6265  442 L
6149 4761 mt 
(0.01) s
 900 4616 mt  953 4616 L
6265 4616 mt 6211 4616 L
 699 4660 mt 
(2.5) s
 900 4087 mt  953 4087 L
6265 4087 mt 6211 4087 L
 799 4131 mt 
(3) s
 900 3559 mt  953 3559 L
6265 3559 mt 6211 3559 L
 699 3603 mt 
(3.5) s
 900 3030 mt  953 3030 L
6265 3030 mt 6211 3030 L
 799 3074 mt 
(4) s
 900 2502 mt  953 2502 L
6265 2502 mt 6211 2502 L
 699 2546 mt 
(4.5) s
 900 1974 mt  953 1974 L
6265 1974 mt 6211 1974 L
 799 2018 mt 
(5) s
 900 1445 mt  953 1445 L
6265 1445 mt 6211 1445 L
 699 1489 mt 
(5.5) s
 900  917 mt  953  917 L
6265  917 mt 6211  917 L
 799  961 mt 
(6) s
 900  389 mt  953  389 L
6265  389 mt 6211  389 L
 699  433 mt 
(6.5) s
 900 4616 mt 6265 4616 L
 900  389 mt 6265  389 L
 900 4616 mt  900  389 L
6265 4616 mt 6265  389 L
gs 900 389 5366 4228 MR c np
/c8 { 0.000000 0.000000 1.000000 sr} bdef
c8
110 -3 109 -2 110 -3 109 -3 110 -2 109 -3 110 -3 109 -3 
110 -3 109 -3 110 -3 109 -3 110 -2 109 -3 110 -3 109 -3 
110 -3 109 -3 110 -3 109 -2 110 -3 109 -2 110 -2 109 -2 
110 -2 109 -2 110 -2 109 -2 110 -2 109 -1 110 -2 109 -1 
110 -1 109 -1 110 0 109 -1 110 1 109 0 110 2 109 3 
110 4 109 6 110 8 109 12 110 18 109 30 110 52 109 114 
109 579 900 554 50 MP stroke
gr

c8
gs 827 481 5512 976 MR c np
  36   36  900  554 FO
  36   36 1009 1133 FO
  36   36 1118 1247 FO
  36   36 1228 1299 FO
  36   36 1337 1329 FO
  36   36 1447 1347 FO
  36   36 1556 1359 FO
  36   36 1666 1367 FO
  36   36 1775 1373 FO
  36   36 1885 1377 FO
  36   36 1994 1380 FO
  36   36 2104 1382 FO
  36   36 2213 1382 FO
  36   36 2323 1383 FO
  36   36 2432 1382 FO
  36   36 2542 1382 FO
  36   36 2651 1381 FO
  36   36 2761 1380 FO
  36   36 2870 1379 FO
  36   36 2980 1377 FO
  36   36 3089 1376 FO
  36   36 3199 1374 FO
  36   36 3308 1372 FO
  36   36 3418 1370 FO
  36   36 3527 1368 FO
  36   36 3637 1366 FO
  36   36 3746 1364 FO
  36   36 3856 1362 FO
  36   36 3965 1360 FO
  36   36 4075 1357 FO
  36   36 4184 1355 FO
  36   36 4294 1352 FO
  36   36 4403 1349 FO
  36   36 4513 1346 FO
  36   36 4622 1343 FO
  36   36 4732 1340 FO
  36   36 4841 1337 FO
  36   36 4951 1335 FO
  36   36 5060 1332 FO
  36   36 5170 1329 FO
  36   36 5279 1326 FO
  36   36 5389 1323 FO
  36   36 5498 1320 FO
  36   36 5608 1317 FO
  36   36 5717 1314 FO
  36   36 5827 1312 FO
  36   36 5936 1309 FO
  36   36 6046 1306 FO
  36   36 6155 1304 FO
  36   36 6265 1301 FO
gr

gs 900 389 5366 4228 MR c np
/c9 { 1.000000 0.000000 1.000000 sr} bdef
c9
110 -9 109 -10 110 -9 109 -10 110 -9 109 -10 110 -10 109 -11 
110 -10 109 -11 110 -10 109 -12 110 -11 109 -11 110 -12 109 -12 
110 -12 109 -13 110 -12 109 -14 110 -13 109 -14 110 -15 109 -14 
110 -16 109 -16 110 -17 109 -17 110 -18 109 -19 110 -19 109 -21 
110 -22 109 -22 110 -24 109 -26 110 -27 109 -29 110 -31 109 -34 
110 -37 109 -40 110 -45 109 -50 110 -59 109 -70 110 -86 109 -112 
109 -121 900 4350 50 MP stroke
gr

c9
gs 827 3025 5512 1399 MR c np
0 j
-41 71 -41 -71 82 0 859 4374 4 MP
DP
-41 71 -41 -71 82 0 968 4253 4 MP
DP
-41 71 -41 -71 82 0 1077 4141 4 MP
DP
-41 71 -41 -71 82 0 1187 4055 4 MP
DP
-41 71 -41 -71 82 0 1296 3985 4 MP
DP
-41 71 -41 -71 82 0 1406 3926 4 MP
DP
-41 71 -41 -71 82 0 1515 3876 4 MP
DP
-41 71 -41 -71 82 0 1625 3831 4 MP
DP
-41 71 -41 -71 82 0 1734 3791 4 MP
DP
-41 71 -41 -71 82 0 1844 3754 4 MP
DP
-41 71 -41 -71 82 0 1953 3720 4 MP
DP
-41 71 -41 -71 82 0 2063 3689 4 MP
DP
-41 71 -41 -71 82 0 2172 3660 4 MP
DP
-41 71 -41 -71 82 0 2282 3633 4 MP
DP
-41 71 -41 -71 82 0 2391 3607 4 MP
DP
-41 71 -41 -71 82 0 2501 3583 4 MP
DP
-41 71 -41 -71 82 0 2610 3561 4 MP
DP
-41 71 -41 -71 82 0 2720 3539 4 MP
DP
-41 71 -41 -71 82 0 2829 3518 4 MP
DP
-41 71 -41 -71 82 0 2939 3499 4 MP
DP
-41 71 -41 -71 82 0 3048 3480 4 MP
DP
-41 71 -41 -71 82 0 3158 3462 4 MP
DP
-41 71 -41 -71 82 0 3267 3445 4 MP
DP
-41 71 -41 -71 82 0 3377 3428 4 MP
DP
-41 71 -41 -71 82 0 3486 3412 4 MP
DP
-41 71 -41 -71 82 0 3596 3396 4 MP
DP
-41 71 -41 -71 82 0 3705 3382 4 MP
DP
-41 71 -41 -71 82 0 3815 3367 4 MP
DP
-41 71 -41 -71 82 0 3924 3353 4 MP
DP
-41 71 -41 -71 82 0 4034 3340 4 MP
DP
-41 71 -41 -71 82 0 4143 3326 4 MP
DP
-41 71 -41 -71 82 0 4253 3314 4 MP
DP
-41 71 -41 -71 82 0 4362 3301 4 MP
DP
-41 71 -41 -71 82 0 4472 3289 4 MP
DP
-41 71 -41 -71 82 0 4581 3277 4 MP
DP
-41 71 -41 -71 82 0 4691 3265 4 MP
DP
-41 71 -41 -71 82 0 4800 3254 4 MP
DP
-41 71 -41 -71 82 0 4910 3243 4 MP
DP
-41 71 -41 -71 82 0 5019 3231 4 MP
DP
-41 71 -41 -71 82 0 5129 3221 4 MP
DP
-41 71 -41 -71 82 0 5238 3210 4 MP
DP
-41 71 -41 -71 82 0 5348 3200 4 MP
DP
-41 71 -41 -71 82 0 5457 3189 4 MP
DP
-41 71 -41 -71 82 0 5567 3179 4 MP
DP
-41 71 -41 -71 82 0 5676 3169 4 MP
DP
-41 71 -41 -71 82 0 5786 3160 4 MP
DP
-41 71 -41 -71 82 0 5895 3150 4 MP
DP
-41 71 -41 -71 82 0 6005 3141 4 MP
DP
-41 71 -41 -71 82 0 6114 3131 4 MP
DP
-41 71 -41 -71 82 0 6224 3122 4 MP
DP
gr

gs 900 389 5366 4228 MR c np
gs 1593 1294 147 147 MR c np
/c10 { 1.000000 0.000000 0.000000 sr} bdef
c10
1630 1367 mt 1702 1367 L
1666 1331 mt 1666 1403 L
1641 1342 mt 1691 1392 L
1691 1342 mt 1641 1392 L
gr

c10
gr

c10
0 sg
%%IncludeResource: font Symbol
/Symbol /ISOLatin1Encoding 180 FMSR

3529 4940 mt 
(m) s
%%IncludeResource: font Helvetica
/Helvetica /ISOLatin1Encoding 180 FMSR

 604 3336 mt  -90 rotate
(Average L2 DistError) s
90 rotate
%%IncludeResource: font Helvetica
/Helvetica /ISOLatin1Encoding 216 FMSR

1688  273 mt 
(Regularized Linear Regression Tradeoff) s
%%IncludeResource: font Helvetica
/Helvetica /ISOLatin1Encoding 120 FMSR

 883 4659 mt 
( ) s
6249  431 mt 
( ) s
1 sg
0 480 1513 0 0 -480 4693 929 4 MP
PP
-1513 0 0 480 1513 0 0 -480 4693 929 5 MP stroke
4 w
DO
SO
6 w
0 sg
4693  929 mt 6206  929 L
4693  449 mt 6206  449 L
4693  929 mt 4693  449 L
6206  929 mt 6206  449 L
4693  929 mt 6206  929 L
4693  929 mt 4693  449 L
4693  929 mt 6206  929 L
4693  449 mt 6206  449 L
4693  929 mt 4693  449 L
6206  929 mt 6206  449 L
5141  583 mt 
(testingError) s
gs 4693 449 1514 481 MR c np
c8
345 0 4761 540 2 MP stroke
gs 4860 467 147 147 MR c np
  36   36 4933  540 FO
gr

gr

c8
0 sg
5141  732 mt 
(trainingError) s
gs 4693 449 1514 481 MR c np
c9
345 0 4761 689 2 MP stroke
gs 4860 616 147 147 MR c np
0 j
-41 71 -41 -71 82 0 4892 713 4 MP
DP
gr

gr

c9
0 sg
5141  880 mt 
(Best Model Choice) s
gs 4693 449 1514 481 MR c np
gs 4860 764 147 147 MR c np
c10
4897  837 mt 4969  837 L
4933  801 mt 4933  873 L
4908  812 mt 4958  862 L
4958  812 mt 4908  862 L
gr

c10
gr

c10

end %%Color Dict

eplot
%%EndObject

epage
end

showpage

%%Trailer
%%EOF
